2020-06-09 10:42:50
|ORIGEM: ImunneVacinas
|EMPRESA: -1
|USER: -1
|ERRO: Timeout expired.  The timeout period elapsed prior to completion of the operation or the server is not responding.
|TIPO: MySql.Data.MySqlClient.MySqlException
|TRACE:    em MySql.Data.MySqlClient.MySqlConnection.HandleTimeoutOrThreadAbort(Exception ex)
   em MySql.Data.MySqlClient.MySqlCommand.ExecuteReader(CommandBehavior behavior)
   em MySql.Data.MySqlClient.MySqlCommand.ExecuteDbDataReader(CommandBehavior behavior)
   em System.Data.Common.DbCommand.System.Data.IDbCommand.ExecuteReader(CommandBehavior behavior)
   em System.Data.Common.DbDataAdapter.FillInternal(DataSet dataset, DataTable[] datatables, Int32 startRecord, Int32 maxRecords, String srcTable, IDbCommand command, CommandBehavior behavior)
   em System.Data.Common.DbDataAdapter.Fill(DataTable[] dataTables, Int32 startRecord, Int32 maxRecords, IDbCommand command, CommandBehavior behavior)
   em System.Data.Common.DbDataAdapter.Fill(DataTable dataTable)
   em ImunneVacinas.Data.getData(MySqlCommand sql) na d:\web\localuser\vacinas\www\App_Code\Data.cs:linha 82
|EXTRA: 
--------------------------------------------------------------------------------

2020-06-09 14:56:01
|ORIGEM: ImunneVacinas
|EMPRESA: -1
|USER: -1
|ERRO: Timeout expired.  The timeout period elapsed prior to completion of the operation or the server is not responding.
|TIPO: MySql.Data.MySqlClient.MySqlException
|TRACE:    em MySql.Data.MySqlClient.MySqlConnection.HandleTimeoutOrThreadAbort(Exception ex)
   em MySql.Data.MySqlClient.MySqlCommand.ExecuteReader(CommandBehavior behavior)
   em MySql.Data.MySqlClient.MySqlCommand.ExecuteDbDataReader(CommandBehavior behavior)
   em System.Data.Common.DbCommand.System.Data.IDbCommand.ExecuteReader(CommandBehavior behavior)
   em System.Data.Common.DbDataAdapter.FillInternal(DataSet dataset, DataTable[] datatables, Int32 startRecord, Int32 maxRecords, String srcTable, IDbCommand command, CommandBehavior behavior)
   em System.Data.Common.DbDataAdapter.Fill(DataTable[] dataTables, Int32 startRecord, Int32 maxRecords, IDbCommand command, CommandBehavior behavior)
   em System.Data.Common.DbDataAdapter.Fill(DataTable dataTable)
   em ImunneVacinas.Data.getData(MySqlCommand sql) na d:\web\localuser\vacinas\www\App_Code\Data.cs:linha 82
|EXTRA: 
--------------------------------------------------------------------------------

