2021-05-25 08:53:09
|ORIGEM: ImunneVacinas
|EMPRESA: -1
|USER: -1
|ERRO: ImunneParticipantes - parâmetros com valores inválidos
|TIPO: System.Exception
|TRACE:    em ImunneVacinas.Participante.ConsultarUnico(Int32 codigo) na d:\web\localuser\vacinas\www\App_Code\Participantes.cs:linha 500
   em imunne_vouchers.IniciarPagina() na d:\web\localuser\vacinas\www\vouchers.aspx.cs:linha 90
|EXTRA: 
--------------------------------------------------------------------------------

2021-05-25 16:30:15
|ORIGEM: ImunneVacinas
|EMPRESA: -1
|USER: -1
|ERRO: A cadeia de caracteres de entrada não estava em um formato correto.
|TIPO: System.FormatException
|TRACE:    em System.Number.StringToNumber(String str, NumberStyles options, NumberBuffer& number, NumberFormatInfo info, Boolean parseDecimal)
   em System.Number.ParseInt32(String s, NumberStyles style, NumberFormatInfo info)
   em System.Convert.ToInt32(String value)
   em prints_compra.IniciarPagina() na d:\web\localuser\vacinas\www\prints\compra.aspx.cs:linha 26
|EXTRA: 
--------------------------------------------------------------------------------

2021-05-25 16:30:17
|ORIGEM: ImunneVacinas
|EMPRESA: -1
|USER: -1
|ERRO: A cadeia de caracteres de entrada não estava em um formato correto.
|TIPO: System.FormatException
|TRACE:    em System.Number.StringToNumber(String str, NumberStyles options, NumberBuffer& number, NumberFormatInfo info, Boolean parseDecimal)
   em System.Number.ParseInt32(String s, NumberStyles style, NumberFormatInfo info)
   em System.Convert.ToInt32(String value)
   em prints_compra.IniciarPagina() na d:\web\localuser\vacinas\www\prints\compra.aspx.cs:linha 26
|EXTRA: 
--------------------------------------------------------------------------------

2021-05-25 16:31:15
|ORIGEM: ImunneVacinas
|EMPRESA: -1
|USER: -1
|ERRO: A cadeia de caracteres de entrada não estava em um formato correto.
|TIPO: System.FormatException
|TRACE:    em System.Number.StringToNumber(String str, NumberStyles options, NumberBuffer& number, NumberFormatInfo info, Boolean parseDecimal)
   em System.Number.ParseInt32(String s, NumberStyles style, NumberFormatInfo info)
   em System.Convert.ToInt32(String value)
   em prints_compra.IniciarPagina() na d:\web\localuser\vacinas\www\prints\compra.aspx.cs:linha 26
|EXTRA: 
--------------------------------------------------------------------------------

2021-05-25 16:31:15
|ORIGEM: ImunneVacinas
|EMPRESA: -1
|USER: -1
|ERRO: A cadeia de caracteres de entrada não estava em um formato correto.
|TIPO: System.FormatException
|TRACE:    em System.Number.StringToNumber(String str, NumberStyles options, NumberBuffer& number, NumberFormatInfo info, Boolean parseDecimal)
   em System.Number.ParseInt32(String s, NumberStyles style, NumberFormatInfo info)
   em System.Convert.ToInt32(String value)
   em prints_compra.IniciarPagina() na d:\web\localuser\vacinas\www\prints\compra.aspx.cs:linha 26
|EXTRA: 
--------------------------------------------------------------------------------

2021-05-25 16:32:19
|ORIGEM: ImunneVacinas
|EMPRESA: -1
|USER: -1
|ERRO: A cadeia de caracteres de entrada não estava em um formato correto.
|TIPO: System.FormatException
|TRACE:    em System.Number.StringToNumber(String str, NumberStyles options, NumberBuffer& number, NumberFormatInfo info, Boolean parseDecimal)
   em System.Number.ParseInt32(String s, NumberStyles style, NumberFormatInfo info)
   em System.Convert.ToInt32(String value)
   em prints_compra.IniciarPagina() na d:\web\localuser\vacinas\www\prints\compra.aspx.cs:linha 26
|EXTRA: 
--------------------------------------------------------------------------------

2021-05-25 16:39:16
|ORIGEM: ImunneVacinas
|EMPRESA: -1
|USER: -1
|ERRO: A cadeia de caracteres de entrada não estava em um formato correto.
|TIPO: System.FormatException
|TRACE:    em System.Number.StringToNumber(String str, NumberStyles options, NumberBuffer& number, NumberFormatInfo info, Boolean parseDecimal)
   em System.Number.ParseInt32(String s, NumberStyles style, NumberFormatInfo info)
   em System.Convert.ToInt32(String value)
   em prints_compra.IniciarPagina() na d:\web\localuser\vacinas\www\prints\compra.aspx.cs:linha 26
|EXTRA: 
--------------------------------------------------------------------------------

2021-05-25 18:08:28
|ORIGEM: ImunneVacinas
|EMPRESA: -1
|USER: -1
|ERRO: A cadeia de caracteres de entrada não estava em um formato correto.
|TIPO: System.FormatException
|TRACE:    em System.Number.StringToNumber(String str, NumberStyles options, NumberBuffer& number, NumberFormatInfo info, Boolean parseDecimal)
   em System.Number.ParseInt32(String s, NumberStyles style, NumberFormatInfo info)
   em System.Convert.ToInt32(String value)
   em prints_compra.IniciarPagina() na d:\web\localuser\vacinas\www\prints\compra.aspx.cs:linha 26
|EXTRA: 
--------------------------------------------------------------------------------

2021-05-25 18:53:06
|ORIGEM: ImunneVacinas
|EMPRESA: -1
|USER: -1
|ERRO: Espaço insuficiente no disco.

|TIPO: System.IO.IOException
|TRACE:    em System.IO.__Error.WinIOError(Int32 errorCode, String maybeFullPath)
   em System.IO.FileStream.WriteCore(Byte[] buffer, Int32 offset, Int32 count)
   em System.IO.FileStream.Write(Byte[] array, Int32 offset, Int32 count)
   em System.Web.HttpRawUploadedContent.WriteBytes(Int32 offset, Int32 length, Stream stream)
   em System.Web.HttpInputStream.WriteTo(Stream s)
   em System.Web.HttpPostedFile.SaveAs(String filename)
   em System.Web.UI.WebControls.FileUpload.SaveAs(String filename)
   em admin_processar_compras.ProcessarVendas(Int32 versao) na d:\web\localuser\vacinas\www\admin\processar-compras.aspx.cs:linha 191
|EXTRA: 
--------------------------------------------------------------------------------

2021-05-25 18:53:13
|ORIGEM: ImunneVacinas
|EMPRESA: -1
|USER: -1
|ERRO: Espaço insuficiente no disco.

|TIPO: System.IO.IOException
|TRACE:    em System.IO.__Error.WinIOError(Int32 errorCode, String maybeFullPath)
   em System.IO.FileStream.WriteCore(Byte[] buffer, Int32 offset, Int32 count)
   em System.IO.FileStream.Write(Byte[] array, Int32 offset, Int32 count)
   em System.Web.HttpRawUploadedContent.WriteBytes(Int32 offset, Int32 length, Stream stream)
   em System.Web.HttpInputStream.WriteTo(Stream s)
   em System.Web.HttpPostedFile.SaveAs(String filename)
   em System.Web.UI.WebControls.FileUpload.SaveAs(String filename)
   em admin_processar_compras.ProcessarVendas(Int32 versao) na d:\web\localuser\vacinas\www\admin\processar-compras.aspx.cs:linha 191
|EXTRA: 
--------------------------------------------------------------------------------

2021-05-25 18:53:25
|ORIGEM: ImunneVacinas
|EMPRESA: -1
|USER: -1
|ERRO: Espaço insuficiente no disco.

|TIPO: System.IO.IOException
|TRACE:    em System.IO.__Error.WinIOError(Int32 errorCode, String maybeFullPath)
   em System.IO.FileStream.WriteCore(Byte[] buffer, Int32 offset, Int32 count)
   em System.IO.FileStream.Write(Byte[] array, Int32 offset, Int32 count)
   em System.Web.HttpRawUploadedContent.WriteBytes(Int32 offset, Int32 length, Stream stream)
   em System.Web.HttpInputStream.WriteTo(Stream s)
   em System.Web.HttpPostedFile.SaveAs(String filename)
   em System.Web.UI.WebControls.FileUpload.SaveAs(String filename)
   em admin_processar_compras.ProcessarVendas(Int32 versao) na d:\web\localuser\vacinas\www\admin\processar-compras.aspx.cs:linha 191
|EXTRA: 
--------------------------------------------------------------------------------

2021-05-25 18:54:49
|ORIGEM: ImunneVacinas
|EMPRESA: -1
|USER: -1
|ERRO: Espaço insuficiente no disco.

|TIPO: System.IO.IOException
|TRACE:    em System.IO.__Error.WinIOError(Int32 errorCode, String maybeFullPath)
   em System.IO.FileStream.WriteCore(Byte[] buffer, Int32 offset, Int32 count)
   em System.IO.FileStream.Write(Byte[] array, Int32 offset, Int32 count)
   em System.Web.HttpRawUploadedContent.WriteBytes(Int32 offset, Int32 length, Stream stream)
   em System.Web.HttpInputStream.WriteTo(Stream s)
   em System.Web.HttpPostedFile.SaveAs(String filename)
   em System.Web.UI.WebControls.FileUpload.SaveAs(String filename)
   em admin_processar_compras.ProcessarVendas(Int32 versao) na d:\web\localuser\vacinas\www\admin\processar-compras.aspx.cs:linha 191
|EXTRA: 
--------------------------------------------------------------------------------

2021-05-25 22:43:07
|ORIGEM: ImunneVacinas
|EMPRESA: -1
|USER: -1
|ERRO: A conexão subjacente estava fechada: Erro inesperado em um envio.
|TIPO: System.Net.WebException
|TRACE:    em System.Net.HttpWebRequest.GetResponse()
   em ImunneVacinas.Pagamento.ValidarPagamento(Integracao integracao) na d:\web\localuser\vacinas\www\App_Code\Pagamentos.cs:linha 44
|EXTRA: 
--------------------------------------------------------------------------------

2021-05-25 22:43:07
|ORIGEM: ImunneVacinas
|EMPRESA: -1
|USER: -1
|ERRO: S&A Imunizações | parâmetros com valores inválidos
|TIPO: System.Exception
|TRACE:    em ImunneVacinas.TransacaoRealizada.ConsultarUnico(Int32 compra, Int32 transacao) na d:\web\localuser\vacinas\www\App_Code\Transacoes.cs:linha 309
   em ImunneVacinas.TransacaoRealizada.ExisteBD() na d:\web\localuser\vacinas\www\App_Code\Transacoes.cs:linha 332
   em imunne_pagamentos.LnkContinuar_Click(Object sender, EventArgs e) na d:\web\localuser\vacinas\www\pagamentos.aspx.cs:linha 254
|EXTRA: 
--------------------------------------------------------------------------------

