2021-06-28 10:11:42
|ORIGEM: ImunneVacinas
|EMPRESA: -1
|USER: -1
|ERRO: A cadeia de caracteres de entrada não estava em um formato correto.
|TIPO: System.FormatException
|TRACE:    em System.Number.StringToNumber(String str, NumberStyles options, NumberBuffer& number, NumberFormatInfo info, Boolean parseDecimal)
   em System.Number.ParseInt32(String s, NumberStyles style, NumberFormatInfo info)
   em System.Convert.ToInt32(String value)
   em prints_compra.IniciarPagina() na d:\web\localuser\vacinas\www\prints\compra.aspx.cs:linha 26
|EXTRA: 
--------------------------------------------------------------------------------

2021-06-28 14:23:25
|ORIGEM: ImunneVacinas
|EMPRESA: -1
|USER: -1
|ERRO: O host remoto fechou a conexão. O código de erro é 0x80070057.
|TIPO: System.Web.HttpException
|TRACE:    em System.Web.Hosting.IIS7WorkerRequest.RaiseCommunicationError(Int32 result, Boolean throwOnDisconnect)
   em System.Web.Hosting.IIS7WorkerRequest.ExplicitFlush()
   em System.Web.HttpResponse.Flush(Boolean finalFlush, Boolean async)
   em System.Web.HttpResponse.Flush()
   em ImunneVacinas.ExportacoesExcel.NovoExportarItensCompras(List`1 listaImpressao) na d:\web\localuser\vacinas\www\App_Code\ExportacoesExcel.cs:linha 1080
   em admin_compras.BtnExportarItens_Click(Object sender, EventArgs e) na d:\web\localuser\vacinas\www\admin\compras.aspx.cs:linha 902
|EXTRA: 
--------------------------------------------------------------------------------

