2021-05-03 10:34:57
|ORIGEM: ImunneVacinas
|EMPRESA: -1
|USER: -1
|ERRO: Referência de objeto não definida para uma instância de um objeto.
|TIPO: System.NullReferenceException
|TRACE:    em imunne_beneficiarios.LnkContinuar_Click(Object sender, EventArgs e) na d:\web\localuser\vacinas\www\beneficiarios.aspx.cs:linha 270
|EXTRA: 
--------------------------------------------------------------------------------

2021-05-03 10:35:11
|ORIGEM: ImunneVacinas
|EMPRESA: -1
|USER: -1
|ERRO: Referência de objeto não definida para uma instância de um objeto.
|TIPO: System.NullReferenceException
|TRACE:    em imunne_beneficiarios.LnkContinuar_Click(Object sender, EventArgs e) na d:\web\localuser\vacinas\www\beneficiarios.aspx.cs:linha 270
|EXTRA: 
--------------------------------------------------------------------------------

2021-05-03 10:35:31
|ORIGEM: ImunneVacinas
|EMPRESA: -1
|USER: -1
|ERRO: Referência de objeto não definida para uma instância de um objeto.
|TIPO: System.NullReferenceException
|TRACE:    em imunne_beneficiarios.LnkContinuar_Click(Object sender, EventArgs e) na d:\web\localuser\vacinas\www\beneficiarios.aspx.cs:linha 270
|EXTRA: 
--------------------------------------------------------------------------------

2021-05-03 10:35:39
|ORIGEM: ImunneVacinas
|EMPRESA: -1
|USER: -1
|ERRO: Referência de objeto não definida para uma instância de um objeto.
|TIPO: System.NullReferenceException
|TRACE:    em imunne_beneficiarios.LnkContinuar_Click(Object sender, EventArgs e) na d:\web\localuser\vacinas\www\beneficiarios.aspx.cs:linha 270
|EXTRA: 
--------------------------------------------------------------------------------

2021-05-03 10:36:27
|ORIGEM: ImunneVacinas
|EMPRESA: -1
|USER: -1
|ERRO: Referência de objeto não definida para uma instância de um objeto.
|TIPO: System.NullReferenceException
|TRACE:    em imunne_beneficiarios.LnkContinuar_Click(Object sender, EventArgs e) na d:\web\localuser\vacinas\www\beneficiarios.aspx.cs:linha 270
|EXTRA: 
--------------------------------------------------------------------------------

2021-05-03 10:39:30
|ORIGEM: ImunneVacinas
|EMPRESA: -1
|USER: -1
|ERRO: A conexão subjacente estava fechada: Erro inesperado em um envio.
|TIPO: System.Net.WebException
|TRACE:    em System.Net.HttpWebRequest.GetResponse()
   em ImunneVacinas.Pagamento.ValidarPagamento(Integracao integracao) na d:\web\localuser\vacinas\www\App_Code\Pagamentos.cs:linha 44
|EXTRA: 
--------------------------------------------------------------------------------

2021-05-03 10:39:30
|ORIGEM: ImunneVacinas
|EMPRESA: -1
|USER: -1
|ERRO: S&A Imunizações | parâmetros com valores inválidos
|TIPO: System.Exception
|TRACE:    em ImunneVacinas.TransacaoRealizada.ConsultarUnico(Int32 compra, Int32 transacao) na d:\web\localuser\vacinas\www\App_Code\Transacoes.cs:linha 309
   em ImunneVacinas.TransacaoRealizada.ExisteBD() na d:\web\localuser\vacinas\www\App_Code\Transacoes.cs:linha 332
   em imunne_pagamentos.LnkContinuar_Click(Object sender, EventArgs e) na d:\web\localuser\vacinas\www\pagamentos.aspx.cs:linha 254
|EXTRA: 
--------------------------------------------------------------------------------

2021-05-03 11:01:57
|ORIGEM: ImunneVacinas
|EMPRESA: -1
|USER: -1
|ERRO: A conexão subjacente estava fechada: Erro inesperado em um envio.
|TIPO: System.Net.WebException
|TRACE:    em System.Net.HttpWebRequest.GetResponse()
   em ImunneVacinas.Pagamento.ValidarPagamento(Integracao integracao) na d:\web\localuser\vacinas\www\App_Code\Pagamentos.cs:linha 44
|EXTRA: 
--------------------------------------------------------------------------------

2021-05-03 11:01:57
|ORIGEM: ImunneVacinas
|EMPRESA: -1
|USER: -1
|ERRO: S&A Imunizações | parâmetros com valores inválidos
|TIPO: System.Exception
|TRACE:    em ImunneVacinas.TransacaoRealizada.ConsultarUnico(Int32 compra, Int32 transacao) na d:\web\localuser\vacinas\www\App_Code\Transacoes.cs:linha 309
   em ImunneVacinas.TransacaoRealizada.ExisteBD() na d:\web\localuser\vacinas\www\App_Code\Transacoes.cs:linha 332
   em imunne_pagamentos.LnkContinuar_Click(Object sender, EventArgs e) na d:\web\localuser\vacinas\www\pagamentos.aspx.cs:linha 254
|EXTRA: 
--------------------------------------------------------------------------------

2021-05-03 11:16:47
|ORIGEM: ImunneVacinas
|EMPRESA: -1
|USER: -1
|ERRO: A conexão subjacente estava fechada: Erro inesperado em um envio.
|TIPO: System.Net.WebException
|TRACE:    em System.Net.HttpWebRequest.GetResponse()
   em ImunneVacinas.Pagamento.ValidarPagamento(Integracao integracao) na d:\web\localuser\vacinas\www\App_Code\Pagamentos.cs:linha 44
|EXTRA: 
--------------------------------------------------------------------------------

2021-05-03 11:16:47
|ORIGEM: ImunneVacinas
|EMPRESA: -1
|USER: -1
|ERRO: S&A Imunizações | parâmetros com valores inválidos
|TIPO: System.Exception
|TRACE:    em ImunneVacinas.TransacaoRealizada.ConsultarUnico(Int32 compra, Int32 transacao) na d:\web\localuser\vacinas\www\App_Code\Transacoes.cs:linha 309
   em ImunneVacinas.TransacaoRealizada.ExisteBD() na d:\web\localuser\vacinas\www\App_Code\Transacoes.cs:linha 332
   em imunne_pagamentos.LnkContinuar_Click(Object sender, EventArgs e) na d:\web\localuser\vacinas\www\pagamentos.aspx.cs:linha 254
|EXTRA: 
--------------------------------------------------------------------------------

2021-05-03 11:43:20
|ORIGEM: ImunneVacinas
|EMPRESA: -1
|USER: -1
|ERRO: A cadeia de caracteres de entrada não estava em um formato correto.
|TIPO: System.FormatException
|TRACE:    em System.Number.StringToNumber(String str, NumberStyles options, NumberBuffer& number, NumberFormatInfo info, Boolean parseDecimal)
   em System.Number.ParseInt32(String s, NumberStyles style, NumberFormatInfo info)
   em System.Convert.ToInt32(String value)
   em prints_compra.IniciarPagina() na d:\web\localuser\vacinas\www\prints\compra.aspx.cs:linha 26
|EXTRA: 
--------------------------------------------------------------------------------

2021-05-03 12:14:45
|ORIGEM: ImunneVacinas
|EMPRESA: -1
|USER: -1
|ERRO: A cadeia de caracteres de entrada não estava em um formato correto.
|TIPO: System.FormatException
|TRACE:    em System.Number.StringToNumber(String str, NumberStyles options, NumberBuffer& number, NumberFormatInfo info, Boolean parseDecimal)
   em System.Number.ParseInt32(String s, NumberStyles style, NumberFormatInfo info)
   em System.Convert.ToInt32(String value)
   em prints_compra.IniciarPagina() na d:\web\localuser\vacinas\www\prints\compra.aspx.cs:linha 26
|EXTRA: 
--------------------------------------------------------------------------------

2021-05-03 15:40:54
|ORIGEM: ImunneVacinas
|EMPRESA: -1
|USER: -1
|ERRO: ImunneParticipantes - parâmetros com valores inválidos
|TIPO: System.Exception
|TRACE:    em ImunneVacinas.Participante.ConsultarUnico(Int32 codigo) na d:\web\localuser\vacinas\www\App_Code\Participantes.cs:linha 500
   em imunne_vouchers.IniciarPagina() na d:\web\localuser\vacinas\www\vouchers.aspx.cs:linha 90
|EXTRA: 
--------------------------------------------------------------------------------

2021-05-03 15:41:37
|ORIGEM: ImunneVacinas
|EMPRESA: -1
|USER: -1
|ERRO: ImunneParticipantes - parâmetros com valores inválidos
|TIPO: System.Exception
|TRACE:    em ImunneVacinas.Participante.ConsultarUnico(Int32 codigo) na d:\web\localuser\vacinas\www\App_Code\Participantes.cs:linha 500
   em imunne_vouchers.IniciarPagina() na d:\web\localuser\vacinas\www\vouchers.aspx.cs:linha 90
|EXTRA: 
--------------------------------------------------------------------------------

