2022-03-17 08:19:21
|ORIGEM: ImunneVacinas
|EMPRESA: -1
|USER: -1
|ERRO: A conexão subjacente estava fechada: Erro inesperado em um envio.
|TIPO: System.Net.WebException
|TRACE:    em System.Net.HttpWebRequest.GetResponse()
   em ImunneVacinas.Pagamento.ValidarPagamento(Integracao integracao) na d:\web\localuser\vacinas\www\App_Code\Pagamentos.cs:linha 44
|EXTRA: 
--------------------------------------------------------------------------------

2022-03-17 08:19:21
|ORIGEM: ImunneVacinas
|EMPRESA: -1
|USER: -1
|ERRO: S&A Imunizações | parâmetros com valores inválidos
|TIPO: System.Exception
|TRACE:    em ImunneVacinas.TransacaoRealizada.ConsultarUnico(Int32 compra, Int32 transacao) na d:\web\localuser\vacinas\www\App_Code\Transacoes.cs:linha 309
   em ImunneVacinas.TransacaoRealizada.ExisteBD() na d:\web\localuser\vacinas\www\App_Code\Transacoes.cs:linha 332
   em imunne_pagamentos.LnkContinuar_Click(Object sender, EventArgs e) na d:\web\localuser\vacinas\www\pagamentos.aspx.cs:linha 254
|EXTRA: 
--------------------------------------------------------------------------------

2022-03-17 18:13:08
|ORIGEM: ImunneVacinas
|EMPRESA: -1
|USER: -1
|ERRO: A cadeia de caracteres de entrada não estava em um formato correto.
|TIPO: System.FormatException
|TRACE:    em System.Number.StringToNumber(String str, NumberStyles options, NumberBuffer& number, NumberFormatInfo info, Boolean parseDecimal)
   em System.Number.ParseInt32(String s, NumberStyles style, NumberFormatInfo info)
   em System.Convert.ToInt32(String value)
   em prints_compra.IniciarPagina() na d:\web\localuser\vacinas\www\prints\compra.aspx.cs:linha 26
|EXTRA: 
--------------------------------------------------------------------------------

