2022-05-17 12:32:36
|ORIGEM: ImunneVacinas
|EMPRESA: -1
|USER: -1
|ERRO: A cadeia de caracteres de entrada não estava em um formato correto.
|TIPO: System.FormatException
|TRACE:    em System.Number.StringToNumber(String str, NumberStyles options, NumberBuffer& number, NumberFormatInfo info, Boolean parseDecimal)
   em System.Number.ParseInt32(String s, NumberStyles style, NumberFormatInfo info)
   em System.Convert.ToInt32(String value)
   em prints_compra.IniciarPagina() na d:\web\localuser\vacinas\www\prints\compra.aspx.cs:linha 26
|EXTRA: 
--------------------------------------------------------------------------------

