2022-04-17 03:06:15
|ORIGEM: ImunneVacinas
|EMPRESA: -1
|USER: -1
|ERRO: A conexão subjacente estava fechada: Erro inesperado em um envio.
|TIPO: System.Net.WebException
|TRACE:    em System.Net.HttpWebRequest.GetResponse()
   em ImunneVacinas.Pagamento.ValidarPagamento(Integracao integracao) na d:\web\localuser\vacinas\www\App_Code\Pagamentos.cs:linha 44
|EXTRA: 
--------------------------------------------------------------------------------

2022-04-17 03:06:15
|ORIGEM: ImunneVacinas
|EMPRESA: -1
|USER: -1
|ERRO: S&A Imunizações | parâmetros com valores inválidos
|TIPO: System.Exception
|TRACE:    em ImunneVacinas.TransacaoRealizada.ConsultarUnico(Int32 compra, Int32 transacao) na d:\web\localuser\vacinas\www\App_Code\Transacoes.cs:linha 309
   em ImunneVacinas.TransacaoRealizada.ExisteBD() na d:\web\localuser\vacinas\www\App_Code\Transacoes.cs:linha 332
   em imunne_pagamentos.LnkContinuar_Click(Object sender, EventArgs e) na d:\web\localuser\vacinas\www\pagamentos.aspx.cs:linha 254
|EXTRA: 
--------------------------------------------------------------------------------

2022-04-17 10:12:05
|ORIGEM: ImunneVacinas
|EMPRESA: -1
|USER: -1
|ERRO: A conexão subjacente estava fechada: Erro inesperado em um envio.
|TIPO: System.Net.WebException
|TRACE:    em System.Net.HttpWebRequest.GetResponse()
   em ImunneVacinas.Pagamento.ValidarPagamento(Integracao integracao) na d:\web\localuser\vacinas\www\App_Code\Pagamentos.cs:linha 44
|EXTRA: 
--------------------------------------------------------------------------------

2022-04-17 10:12:05
|ORIGEM: ImunneVacinas
|EMPRESA: -1
|USER: -1
|ERRO: S&A Imunizações | parâmetros com valores inválidos
|TIPO: System.Exception
|TRACE:    em ImunneVacinas.TransacaoRealizada.ConsultarUnico(Int32 compra, Int32 transacao) na d:\web\localuser\vacinas\www\App_Code\Transacoes.cs:linha 309
   em ImunneVacinas.TransacaoRealizada.ExisteBD() na d:\web\localuser\vacinas\www\App_Code\Transacoes.cs:linha 332
   em imunne_pagamentos.LnkContinuar_Click(Object sender, EventArgs e) na d:\web\localuser\vacinas\www\pagamentos.aspx.cs:linha 254
|EXTRA: 
--------------------------------------------------------------------------------

2022-04-17 15:47:15
|ORIGEM: ImunneVacinas
|EMPRESA: -1
|USER: -1
|ERRO: ImunneParticipantes - parâmetros com valores inválidos
|TIPO: System.Exception
|TRACE:    em ImunneVacinas.Participante.ConsultarUnico(Int32 codigo) na d:\web\localuser\vacinas\www\App_Code\Participantes.cs:linha 500
   em imunne_vouchers.IniciarPagina() na d:\web\localuser\vacinas\www\vouchers.aspx.cs:linha 90
|EXTRA: 
--------------------------------------------------------------------------------

2022-04-17 15:48:06
|ORIGEM: ImunneVacinas
|EMPRESA: -1
|USER: -1
|ERRO: ImunneParticipantes - parâmetros com valores inválidos
|TIPO: System.Exception
|TRACE:    em ImunneVacinas.Participante.ConsultarUnico(Int32 codigo) na d:\web\localuser\vacinas\www\App_Code\Participantes.cs:linha 500
   em imunne_vouchers.IniciarPagina() na d:\web\localuser\vacinas\www\vouchers.aspx.cs:linha 90
|EXTRA: 
--------------------------------------------------------------------------------

2022-04-17 18:39:15
|ORIGEM: ImunneVacinas
|EMPRESA: -1
|USER: -1
|ERRO: ImunneParticipantes - parâmetros com valores inválidos
|TIPO: System.Exception
|TRACE:    em ImunneVacinas.Participante.ConsultarUnico(Int32 codigo) na d:\web\localuser\vacinas\www\App_Code\Participantes.cs:linha 500
   em imunne_vouchers.IniciarPagina() na d:\web\localuser\vacinas\www\vouchers.aspx.cs:linha 90
|EXTRA: 
--------------------------------------------------------------------------------

2022-04-17 18:39:52
|ORIGEM: ImunneVacinas
|EMPRESA: -1
|USER: -1
|ERRO: ImunneParticipantes - parâmetros com valores inválidos
|TIPO: System.Exception
|TRACE:    em ImunneVacinas.Participante.ConsultarUnico(Int32 codigo) na d:\web\localuser\vacinas\www\App_Code\Participantes.cs:linha 500
   em imunne_vouchers.IniciarPagina() na d:\web\localuser\vacinas\www\vouchers.aspx.cs:linha 90
|EXTRA: 
--------------------------------------------------------------------------------

