2023-03-29 15:37:01
|ORIGEM: ImunneVacinas
|EMPRESA: -1
|USER: -1
|ERRO: O nome remoto não pôde ser resolvido: 'gateway.yapay.com.br'
|TIPO: System.Net.WebException
|TRACE:    em System.Net.HttpWebRequest.GetRequestStream(TransportContext& context)
   em System.Net.HttpWebRequest.GetRequestStream()
   em ImunneVacinas.Pagamento.ValidarPagamento(Integracao integracao) na d:\web\localuser\vacinas\www\App_Code\Pagamentos.cs:linha 36
|EXTRA: 
--------------------------------------------------------------------------------

2023-03-29 15:37:01
|ORIGEM: ImunneVacinas
|EMPRESA: -1
|USER: -1
|ERRO: S&A Imunizações | parâmetros com valores inválidos
|TIPO: System.Exception
|TRACE:    em ImunneVacinas.TransacaoRealizada.ConsultarUnico(Int32 compra, Int32 transacao) na d:\web\localuser\vacinas\www\App_Code\Transacoes.cs:linha 309
   em ImunneVacinas.TransacaoRealizada.ExisteBD() na d:\web\localuser\vacinas\www\App_Code\Transacoes.cs:linha 332
   em imunne_pagamentos.LnkContinuar_Click(Object sender, EventArgs e) na d:\web\localuser\vacinas\www\pagamentos.aspx.cs:linha 254
|EXTRA: 
--------------------------------------------------------------------------------

2023-03-29 15:37:18
|ORIGEM: ImunneVacinas
|EMPRESA: -1
|USER: -1
|ERRO: O nome remoto não pôde ser resolvido: 'gateway.yapay.com.br'
|TIPO: System.Net.WebException
|TRACE:    em System.Net.HttpWebRequest.GetRequestStream(TransportContext& context)
   em System.Net.HttpWebRequest.GetRequestStream()
   em ImunneVacinas.Pagamento.ValidarPagamento(Integracao integracao) na d:\web\localuser\vacinas\www\App_Code\Pagamentos.cs:linha 36
|EXTRA: 
--------------------------------------------------------------------------------

2023-03-29 15:37:18
|ORIGEM: ImunneVacinas
|EMPRESA: -1
|USER: -1
|ERRO: S&A Imunizações | parâmetros com valores inválidos
|TIPO: System.Exception
|TRACE:    em ImunneVacinas.TransacaoRealizada.ConsultarUnico(Int32 compra, Int32 transacao) na d:\web\localuser\vacinas\www\App_Code\Transacoes.cs:linha 309
   em ImunneVacinas.TransacaoRealizada.ExisteBD() na d:\web\localuser\vacinas\www\App_Code\Transacoes.cs:linha 332
   em imunne_pagamentos.LnkContinuar_Click(Object sender, EventArgs e) na d:\web\localuser\vacinas\www\pagamentos.aspx.cs:linha 254
|EXTRA: 
--------------------------------------------------------------------------------

2023-03-29 15:37:24
|ORIGEM: ImunneVacinas
|EMPRESA: -1
|USER: -1
|ERRO: O nome remoto não pôde ser resolvido: 'gateway.yapay.com.br'
|TIPO: System.Net.WebException
|TRACE:    em System.Net.HttpWebRequest.GetRequestStream(TransportContext& context)
   em System.Net.HttpWebRequest.GetRequestStream()
   em ImunneVacinas.Pagamento.ValidarPagamento(Integracao integracao) na d:\web\localuser\vacinas\www\App_Code\Pagamentos.cs:linha 36
|EXTRA: 
--------------------------------------------------------------------------------

2023-03-29 15:37:24
|ORIGEM: ImunneVacinas
|EMPRESA: -1
|USER: -1
|ERRO: S&A Imunizações | parâmetros com valores inválidos
|TIPO: System.Exception
|TRACE:    em ImunneVacinas.TransacaoRealizada.ConsultarUnico(Int32 compra, Int32 transacao) na d:\web\localuser\vacinas\www\App_Code\Transacoes.cs:linha 309
   em ImunneVacinas.TransacaoRealizada.ExisteBD() na d:\web\localuser\vacinas\www\App_Code\Transacoes.cs:linha 332
   em imunne_pagamentos.LnkContinuar_Click(Object sender, EventArgs e) na d:\web\localuser\vacinas\www\pagamentos.aspx.cs:linha 254
|EXTRA: 
--------------------------------------------------------------------------------

2023-03-29 15:37:33
|ORIGEM: ImunneVacinas
|EMPRESA: -1
|USER: -1
|ERRO: O nome remoto não pôde ser resolvido: 'gateway.yapay.com.br'
|TIPO: System.Net.WebException
|TRACE:    em System.Net.HttpWebRequest.GetRequestStream(TransportContext& context)
   em System.Net.HttpWebRequest.GetRequestStream()
   em ImunneVacinas.Pagamento.ValidarPagamento(Integracao integracao) na d:\web\localuser\vacinas\www\App_Code\Pagamentos.cs:linha 36
|EXTRA: 
--------------------------------------------------------------------------------

2023-03-29 15:37:33
|ORIGEM: ImunneVacinas
|EMPRESA: -1
|USER: -1
|ERRO: S&A Imunizações | parâmetros com valores inválidos
|TIPO: System.Exception
|TRACE:    em ImunneVacinas.TransacaoRealizada.ConsultarUnico(Int32 compra, Int32 transacao) na d:\web\localuser\vacinas\www\App_Code\Transacoes.cs:linha 309
   em ImunneVacinas.TransacaoRealizada.ExisteBD() na d:\web\localuser\vacinas\www\App_Code\Transacoes.cs:linha 332
   em imunne_pagamentos.LnkContinuar_Click(Object sender, EventArgs e) na d:\web\localuser\vacinas\www\pagamentos.aspx.cs:linha 254
|EXTRA: 
--------------------------------------------------------------------------------

2023-03-29 15:37:37
|ORIGEM: ImunneVacinas
|EMPRESA: -1
|USER: -1
|ERRO: O nome remoto não pôde ser resolvido: 'gateway.yapay.com.br'
|TIPO: System.Net.WebException
|TRACE:    em System.Net.HttpWebRequest.GetRequestStream(TransportContext& context)
   em System.Net.HttpWebRequest.GetRequestStream()
   em ImunneVacinas.Pagamento.ValidarPagamento(Integracao integracao) na d:\web\localuser\vacinas\www\App_Code\Pagamentos.cs:linha 36
|EXTRA: 
--------------------------------------------------------------------------------

2023-03-29 15:37:37
|ORIGEM: ImunneVacinas
|EMPRESA: -1
|USER: -1
|ERRO: S&A Imunizações | parâmetros com valores inválidos
|TIPO: System.Exception
|TRACE:    em ImunneVacinas.TransacaoRealizada.ConsultarUnico(Int32 compra, Int32 transacao) na d:\web\localuser\vacinas\www\App_Code\Transacoes.cs:linha 309
   em ImunneVacinas.TransacaoRealizada.ExisteBD() na d:\web\localuser\vacinas\www\App_Code\Transacoes.cs:linha 332
   em imunne_pagamentos.LnkContinuar_Click(Object sender, EventArgs e) na d:\web\localuser\vacinas\www\pagamentos.aspx.cs:linha 254
|EXTRA: 
--------------------------------------------------------------------------------

2023-03-29 15:37:50
|ORIGEM: ImunneVacinas
|EMPRESA: -1
|USER: -1
|ERRO: O nome remoto não pôde ser resolvido: 'gateway.yapay.com.br'
|TIPO: System.Net.WebException
|TRACE:    em System.Net.HttpWebRequest.GetRequestStream(TransportContext& context)
   em System.Net.HttpWebRequest.GetRequestStream()
   em ImunneVacinas.Pagamento.ValidarPagamento(Integracao integracao) na d:\web\localuser\vacinas\www\App_Code\Pagamentos.cs:linha 36
|EXTRA: 
--------------------------------------------------------------------------------

2023-03-29 15:37:50
|ORIGEM: ImunneVacinas
|EMPRESA: -1
|USER: -1
|ERRO: S&A Imunizações | parâmetros com valores inválidos
|TIPO: System.Exception
|TRACE:    em ImunneVacinas.TransacaoRealizada.ConsultarUnico(Int32 compra, Int32 transacao) na d:\web\localuser\vacinas\www\App_Code\Transacoes.cs:linha 309
   em ImunneVacinas.TransacaoRealizada.ExisteBD() na d:\web\localuser\vacinas\www\App_Code\Transacoes.cs:linha 332
   em imunne_pagamentos.LnkContinuar_Click(Object sender, EventArgs e) na d:\web\localuser\vacinas\www\pagamentos.aspx.cs:linha 254
|EXTRA: 
--------------------------------------------------------------------------------

2023-03-29 15:37:57
|ORIGEM: ImunneVacinas
|EMPRESA: -1
|USER: -1
|ERRO: O nome remoto não pôde ser resolvido: 'gateway.yapay.com.br'
|TIPO: System.Net.WebException
|TRACE:    em System.Net.HttpWebRequest.GetRequestStream(TransportContext& context)
   em System.Net.HttpWebRequest.GetRequestStream()
   em ImunneVacinas.Pagamento.ValidarPagamento(Integracao integracao) na d:\web\localuser\vacinas\www\App_Code\Pagamentos.cs:linha 36
|EXTRA: 
--------------------------------------------------------------------------------

2023-03-29 15:37:57
|ORIGEM: ImunneVacinas
|EMPRESA: -1
|USER: -1
|ERRO: S&A Imunizações | parâmetros com valores inválidos
|TIPO: System.Exception
|TRACE:    em ImunneVacinas.TransacaoRealizada.ConsultarUnico(Int32 compra, Int32 transacao) na d:\web\localuser\vacinas\www\App_Code\Transacoes.cs:linha 309
   em ImunneVacinas.TransacaoRealizada.ExisteBD() na d:\web\localuser\vacinas\www\App_Code\Transacoes.cs:linha 332
   em imunne_pagamentos.LnkContinuar_Click(Object sender, EventArgs e) na d:\web\localuser\vacinas\www\pagamentos.aspx.cs:linha 254
|EXTRA: 
--------------------------------------------------------------------------------

2023-03-29 15:38:11
|ORIGEM: ImunneVacinas
|EMPRESA: -1
|USER: -1
|ERRO: O nome remoto não pôde ser resolvido: 'gateway.yapay.com.br'
|TIPO: System.Net.WebException
|TRACE:    em System.Net.HttpWebRequest.GetRequestStream(TransportContext& context)
   em System.Net.HttpWebRequest.GetRequestStream()
   em ImunneVacinas.Pagamento.ValidarPagamento(Integracao integracao) na d:\web\localuser\vacinas\www\App_Code\Pagamentos.cs:linha 36
|EXTRA: 
--------------------------------------------------------------------------------

2023-03-29 15:38:11
|ORIGEM: ImunneVacinas
|EMPRESA: -1
|USER: -1
|ERRO: S&A Imunizações | parâmetros com valores inválidos
|TIPO: System.Exception
|TRACE:    em ImunneVacinas.TransacaoRealizada.ConsultarUnico(Int32 compra, Int32 transacao) na d:\web\localuser\vacinas\www\App_Code\Transacoes.cs:linha 309
   em ImunneVacinas.TransacaoRealizada.ExisteBD() na d:\web\localuser\vacinas\www\App_Code\Transacoes.cs:linha 332
   em imunne_pagamentos.LnkContinuar_Click(Object sender, EventArgs e) na d:\web\localuser\vacinas\www\pagamentos.aspx.cs:linha 254
|EXTRA: 
--------------------------------------------------------------------------------

2023-03-29 15:39:06
|ORIGEM: ImunneVacinas
|EMPRESA: -1
|USER: -1
|ERRO: O nome remoto não pôde ser resolvido: 'gateway.yapay.com.br'
|TIPO: System.Net.WebException
|TRACE:    em System.Net.HttpWebRequest.GetRequestStream(TransportContext& context)
   em System.Net.HttpWebRequest.GetRequestStream()
   em ImunneVacinas.Pagamento.ValidarPagamento(Integracao integracao) na d:\web\localuser\vacinas\www\App_Code\Pagamentos.cs:linha 36
|EXTRA: 
--------------------------------------------------------------------------------

2023-03-29 15:39:06
|ORIGEM: ImunneVacinas
|EMPRESA: -1
|USER: -1
|ERRO: S&A Imunizações | parâmetros com valores inválidos
|TIPO: System.Exception
|TRACE:    em ImunneVacinas.TransacaoRealizada.ConsultarUnico(Int32 compra, Int32 transacao) na d:\web\localuser\vacinas\www\App_Code\Transacoes.cs:linha 309
   em ImunneVacinas.TransacaoRealizada.ExisteBD() na d:\web\localuser\vacinas\www\App_Code\Transacoes.cs:linha 332
   em imunne_pagamentos.LnkContinuar_Click(Object sender, EventArgs e) na d:\web\localuser\vacinas\www\pagamentos.aspx.cs:linha 254
|EXTRA: 
--------------------------------------------------------------------------------

2023-03-29 15:39:12
|ORIGEM: ImunneVacinas
|EMPRESA: -1
|USER: -1
|ERRO: O nome remoto não pôde ser resolvido: 'gateway.yapay.com.br'
|TIPO: System.Net.WebException
|TRACE:    em System.Net.HttpWebRequest.GetRequestStream(TransportContext& context)
   em System.Net.HttpWebRequest.GetRequestStream()
   em ImunneVacinas.Pagamento.ValidarPagamento(Integracao integracao) na d:\web\localuser\vacinas\www\App_Code\Pagamentos.cs:linha 36
|EXTRA: 
--------------------------------------------------------------------------------

2023-03-29 15:39:12
|ORIGEM: ImunneVacinas
|EMPRESA: -1
|USER: -1
|ERRO: S&A Imunizações | parâmetros com valores inválidos
|TIPO: System.Exception
|TRACE:    em ImunneVacinas.TransacaoRealizada.ConsultarUnico(Int32 compra, Int32 transacao) na d:\web\localuser\vacinas\www\App_Code\Transacoes.cs:linha 309
   em ImunneVacinas.TransacaoRealizada.ExisteBD() na d:\web\localuser\vacinas\www\App_Code\Transacoes.cs:linha 332
   em imunne_pagamentos.LnkContinuar_Click(Object sender, EventArgs e) na d:\web\localuser\vacinas\www\pagamentos.aspx.cs:linha 254
|EXTRA: 
--------------------------------------------------------------------------------

2023-03-29 15:39:16
|ORIGEM: ImunneVacinas
|EMPRESA: -1
|USER: -1
|ERRO: O nome remoto não pôde ser resolvido: 'gateway.yapay.com.br'
|TIPO: System.Net.WebException
|TRACE:    em System.Net.HttpWebRequest.GetRequestStream(TransportContext& context)
   em System.Net.HttpWebRequest.GetRequestStream()
   em ImunneVacinas.Pagamento.ValidarPagamento(Integracao integracao) na d:\web\localuser\vacinas\www\App_Code\Pagamentos.cs:linha 36
|EXTRA: 
--------------------------------------------------------------------------------

2023-03-29 15:39:16
|ORIGEM: ImunneVacinas
|EMPRESA: -1
|USER: -1
|ERRO: S&A Imunizações | parâmetros com valores inválidos
|TIPO: System.Exception
|TRACE:    em ImunneVacinas.TransacaoRealizada.ConsultarUnico(Int32 compra, Int32 transacao) na d:\web\localuser\vacinas\www\App_Code\Transacoes.cs:linha 309
   em ImunneVacinas.TransacaoRealizada.ExisteBD() na d:\web\localuser\vacinas\www\App_Code\Transacoes.cs:linha 332
   em imunne_pagamentos.LnkContinuar_Click(Object sender, EventArgs e) na d:\web\localuser\vacinas\www\pagamentos.aspx.cs:linha 254
|EXTRA: 
--------------------------------------------------------------------------------

2023-03-29 15:39:20
|ORIGEM: ImunneVacinas
|EMPRESA: -1
|USER: -1
|ERRO: O nome remoto não pôde ser resolvido: 'gateway.yapay.com.br'
|TIPO: System.Net.WebException
|TRACE:    em System.Net.HttpWebRequest.GetRequestStream(TransportContext& context)
   em System.Net.HttpWebRequest.GetRequestStream()
   em ImunneVacinas.Pagamento.ValidarPagamento(Integracao integracao) na d:\web\localuser\vacinas\www\App_Code\Pagamentos.cs:linha 36
|EXTRA: 
--------------------------------------------------------------------------------

2023-03-29 15:39:20
|ORIGEM: ImunneVacinas
|EMPRESA: -1
|USER: -1
|ERRO: S&A Imunizações | parâmetros com valores inválidos
|TIPO: System.Exception
|TRACE:    em ImunneVacinas.TransacaoRealizada.ConsultarUnico(Int32 compra, Int32 transacao) na d:\web\localuser\vacinas\www\App_Code\Transacoes.cs:linha 309
   em ImunneVacinas.TransacaoRealizada.ExisteBD() na d:\web\localuser\vacinas\www\App_Code\Transacoes.cs:linha 332
   em imunne_pagamentos.LnkContinuar_Click(Object sender, EventArgs e) na d:\web\localuser\vacinas\www\pagamentos.aspx.cs:linha 254
|EXTRA: 
--------------------------------------------------------------------------------

2023-03-29 15:39:23
|ORIGEM: ImunneVacinas
|EMPRESA: -1
|USER: -1
|ERRO: O nome remoto não pôde ser resolvido: 'gateway.yapay.com.br'
|TIPO: System.Net.WebException
|TRACE:    em System.Net.HttpWebRequest.GetRequestStream(TransportContext& context)
   em System.Net.HttpWebRequest.GetRequestStream()
   em ImunneVacinas.Pagamento.ValidarPagamento(Integracao integracao) na d:\web\localuser\vacinas\www\App_Code\Pagamentos.cs:linha 36
|EXTRA: 
--------------------------------------------------------------------------------

2023-03-29 15:39:23
|ORIGEM: ImunneVacinas
|EMPRESA: -1
|USER: -1
|ERRO: S&A Imunizações | parâmetros com valores inválidos
|TIPO: System.Exception
|TRACE:    em ImunneVacinas.TransacaoRealizada.ConsultarUnico(Int32 compra, Int32 transacao) na d:\web\localuser\vacinas\www\App_Code\Transacoes.cs:linha 309
   em ImunneVacinas.TransacaoRealizada.ExisteBD() na d:\web\localuser\vacinas\www\App_Code\Transacoes.cs:linha 332
   em imunne_pagamentos.LnkContinuar_Click(Object sender, EventArgs e) na d:\web\localuser\vacinas\www\pagamentos.aspx.cs:linha 254
|EXTRA: 
--------------------------------------------------------------------------------

2023-03-29 15:39:34
|ORIGEM: ImunneVacinas
|EMPRESA: -1
|USER: -1
|ERRO: O nome remoto não pôde ser resolvido: 'gateway.yapay.com.br'
|TIPO: System.Net.WebException
|TRACE:    em System.Net.HttpWebRequest.GetRequestStream(TransportContext& context)
   em System.Net.HttpWebRequest.GetRequestStream()
   em ImunneVacinas.Pagamento.ValidarPagamento(Integracao integracao) na d:\web\localuser\vacinas\www\App_Code\Pagamentos.cs:linha 36
|EXTRA: 
--------------------------------------------------------------------------------

2023-03-29 15:39:34
|ORIGEM: ImunneVacinas
|EMPRESA: -1
|USER: -1
|ERRO: S&A Imunizações | parâmetros com valores inválidos
|TIPO: System.Exception
|TRACE:    em ImunneVacinas.TransacaoRealizada.ConsultarUnico(Int32 compra, Int32 transacao) na d:\web\localuser\vacinas\www\App_Code\Transacoes.cs:linha 309
   em ImunneVacinas.TransacaoRealizada.ExisteBD() na d:\web\localuser\vacinas\www\App_Code\Transacoes.cs:linha 332
   em imunne_pagamentos.LnkContinuar_Click(Object sender, EventArgs e) na d:\web\localuser\vacinas\www\pagamentos.aspx.cs:linha 254
|EXTRA: 
--------------------------------------------------------------------------------

2023-03-29 15:39:37
|ORIGEM: ImunneVacinas
|EMPRESA: -1
|USER: -1
|ERRO: O nome remoto não pôde ser resolvido: 'gateway.yapay.com.br'
|TIPO: System.Net.WebException
|TRACE:    em System.Net.HttpWebRequest.GetRequestStream(TransportContext& context)
   em System.Net.HttpWebRequest.GetRequestStream()
   em ImunneVacinas.Pagamento.ValidarPagamento(Integracao integracao) na d:\web\localuser\vacinas\www\App_Code\Pagamentos.cs:linha 36
|EXTRA: 
--------------------------------------------------------------------------------

2023-03-29 15:39:37
|ORIGEM: ImunneVacinas
|EMPRESA: -1
|USER: -1
|ERRO: S&A Imunizações | parâmetros com valores inválidos
|TIPO: System.Exception
|TRACE:    em ImunneVacinas.TransacaoRealizada.ConsultarUnico(Int32 compra, Int32 transacao) na d:\web\localuser\vacinas\www\App_Code\Transacoes.cs:linha 309
   em ImunneVacinas.TransacaoRealizada.ExisteBD() na d:\web\localuser\vacinas\www\App_Code\Transacoes.cs:linha 332
   em imunne_pagamentos.LnkContinuar_Click(Object sender, EventArgs e) na d:\web\localuser\vacinas\www\pagamentos.aspx.cs:linha 254
|EXTRA: 
--------------------------------------------------------------------------------

2023-03-29 15:39:48
|ORIGEM: ImunneVacinas
|EMPRESA: -1
|USER: -1
|ERRO: O nome remoto não pôde ser resolvido: 'gateway.yapay.com.br'
|TIPO: System.Net.WebException
|TRACE:    em System.Net.HttpWebRequest.GetRequestStream(TransportContext& context)
   em System.Net.HttpWebRequest.GetRequestStream()
   em ImunneVacinas.Pagamento.ValidarPagamento(Integracao integracao) na d:\web\localuser\vacinas\www\App_Code\Pagamentos.cs:linha 36
|EXTRA: 
--------------------------------------------------------------------------------

2023-03-29 15:39:48
|ORIGEM: ImunneVacinas
|EMPRESA: -1
|USER: -1
|ERRO: S&A Imunizações | parâmetros com valores inválidos
|TIPO: System.Exception
|TRACE:    em ImunneVacinas.TransacaoRealizada.ConsultarUnico(Int32 compra, Int32 transacao) na d:\web\localuser\vacinas\www\App_Code\Transacoes.cs:linha 309
   em ImunneVacinas.TransacaoRealizada.ExisteBD() na d:\web\localuser\vacinas\www\App_Code\Transacoes.cs:linha 332
   em imunne_pagamentos.LnkContinuar_Click(Object sender, EventArgs e) na d:\web\localuser\vacinas\www\pagamentos.aspx.cs:linha 254
|EXTRA: 
--------------------------------------------------------------------------------

2023-03-29 15:39:51
|ORIGEM: ImunneVacinas
|EMPRESA: -1
|USER: -1
|ERRO: O nome remoto não pôde ser resolvido: 'gateway.yapay.com.br'
|TIPO: System.Net.WebException
|TRACE:    em System.Net.HttpWebRequest.GetRequestStream(TransportContext& context)
   em System.Net.HttpWebRequest.GetRequestStream()
   em ImunneVacinas.Pagamento.ValidarPagamento(Integracao integracao) na d:\web\localuser\vacinas\www\App_Code\Pagamentos.cs:linha 36
|EXTRA: 
--------------------------------------------------------------------------------

2023-03-29 15:39:51
|ORIGEM: ImunneVacinas
|EMPRESA: -1
|USER: -1
|ERRO: S&A Imunizações | parâmetros com valores inválidos
|TIPO: System.Exception
|TRACE:    em ImunneVacinas.TransacaoRealizada.ConsultarUnico(Int32 compra, Int32 transacao) na d:\web\localuser\vacinas\www\App_Code\Transacoes.cs:linha 309
   em ImunneVacinas.TransacaoRealizada.ExisteBD() na d:\web\localuser\vacinas\www\App_Code\Transacoes.cs:linha 332
   em imunne_pagamentos.LnkContinuar_Click(Object sender, EventArgs e) na d:\web\localuser\vacinas\www\pagamentos.aspx.cs:linha 254
|EXTRA: 
--------------------------------------------------------------------------------

2023-03-29 15:40:04
|ORIGEM: ImunneVacinas
|EMPRESA: -1
|USER: -1
|ERRO: O nome remoto não pôde ser resolvido: 'gateway.yapay.com.br'
|TIPO: System.Net.WebException
|TRACE:    em System.Net.HttpWebRequest.GetRequestStream(TransportContext& context)
   em System.Net.HttpWebRequest.GetRequestStream()
   em ImunneVacinas.Pagamento.ValidarPagamento(Integracao integracao) na d:\web\localuser\vacinas\www\App_Code\Pagamentos.cs:linha 36
|EXTRA: 
--------------------------------------------------------------------------------

2023-03-29 15:40:04
|ORIGEM: ImunneVacinas
|EMPRESA: -1
|USER: -1
|ERRO: S&A Imunizações | parâmetros com valores inválidos
|TIPO: System.Exception
|TRACE:    em ImunneVacinas.TransacaoRealizada.ConsultarUnico(Int32 compra, Int32 transacao) na d:\web\localuser\vacinas\www\App_Code\Transacoes.cs:linha 309
   em ImunneVacinas.TransacaoRealizada.ExisteBD() na d:\web\localuser\vacinas\www\App_Code\Transacoes.cs:linha 332
   em imunne_pagamentos.LnkContinuar_Click(Object sender, EventArgs e) na d:\web\localuser\vacinas\www\pagamentos.aspx.cs:linha 254
|EXTRA: 
--------------------------------------------------------------------------------

2023-03-29 15:40:09
|ORIGEM: ImunneVacinas
|EMPRESA: -1
|USER: -1
|ERRO: O nome remoto não pôde ser resolvido: 'gateway.yapay.com.br'
|TIPO: System.Net.WebException
|TRACE:    em System.Net.HttpWebRequest.GetRequestStream(TransportContext& context)
   em System.Net.HttpWebRequest.GetRequestStream()
   em ImunneVacinas.Pagamento.ValidarPagamento(Integracao integracao) na d:\web\localuser\vacinas\www\App_Code\Pagamentos.cs:linha 36
|EXTRA: 
--------------------------------------------------------------------------------

2023-03-29 15:40:09
|ORIGEM: ImunneVacinas
|EMPRESA: -1
|USER: -1
|ERRO: S&A Imunizações | parâmetros com valores inválidos
|TIPO: System.Exception
|TRACE:    em ImunneVacinas.TransacaoRealizada.ConsultarUnico(Int32 compra, Int32 transacao) na d:\web\localuser\vacinas\www\App_Code\Transacoes.cs:linha 309
   em ImunneVacinas.TransacaoRealizada.ExisteBD() na d:\web\localuser\vacinas\www\App_Code\Transacoes.cs:linha 332
   em imunne_pagamentos.LnkContinuar_Click(Object sender, EventArgs e) na d:\web\localuser\vacinas\www\pagamentos.aspx.cs:linha 254
|EXTRA: 
--------------------------------------------------------------------------------

2023-03-29 15:40:12
|ORIGEM: ImunneVacinas
|EMPRESA: -1
|USER: -1
|ERRO: O nome remoto não pôde ser resolvido: 'gateway.yapay.com.br'
|TIPO: System.Net.WebException
|TRACE:    em System.Net.HttpWebRequest.GetRequestStream(TransportContext& context)
   em System.Net.HttpWebRequest.GetRequestStream()
   em ImunneVacinas.Pagamento.ValidarPagamento(Integracao integracao) na d:\web\localuser\vacinas\www\App_Code\Pagamentos.cs:linha 36
|EXTRA: 
--------------------------------------------------------------------------------

2023-03-29 15:40:12
|ORIGEM: ImunneVacinas
|EMPRESA: -1
|USER: -1
|ERRO: S&A Imunizações | parâmetros com valores inválidos
|TIPO: System.Exception
|TRACE:    em ImunneVacinas.TransacaoRealizada.ConsultarUnico(Int32 compra, Int32 transacao) na d:\web\localuser\vacinas\www\App_Code\Transacoes.cs:linha 309
   em ImunneVacinas.TransacaoRealizada.ExisteBD() na d:\web\localuser\vacinas\www\App_Code\Transacoes.cs:linha 332
   em imunne_pagamentos.LnkContinuar_Click(Object sender, EventArgs e) na d:\web\localuser\vacinas\www\pagamentos.aspx.cs:linha 254
|EXTRA: 
--------------------------------------------------------------------------------

2023-03-29 15:40:38
|ORIGEM: ImunneVacinas
|EMPRESA: -1
|USER: -1
|ERRO: O nome remoto não pôde ser resolvido: 'gateway.yapay.com.br'
|TIPO: System.Net.WebException
|TRACE:    em System.Net.HttpWebRequest.GetRequestStream(TransportContext& context)
   em System.Net.HttpWebRequest.GetRequestStream()
   em ImunneVacinas.Pagamento.ValidarPagamento(Integracao integracao) na d:\web\localuser\vacinas\www\App_Code\Pagamentos.cs:linha 36
|EXTRA: 
--------------------------------------------------------------------------------

2023-03-29 15:40:38
|ORIGEM: ImunneVacinas
|EMPRESA: -1
|USER: -1
|ERRO: S&A Imunizações | parâmetros com valores inválidos
|TIPO: System.Exception
|TRACE:    em ImunneVacinas.TransacaoRealizada.ConsultarUnico(Int32 compra, Int32 transacao) na d:\web\localuser\vacinas\www\App_Code\Transacoes.cs:linha 309
   em ImunneVacinas.TransacaoRealizada.ExisteBD() na d:\web\localuser\vacinas\www\App_Code\Transacoes.cs:linha 332
   em imunne_pagamentos.LnkContinuar_Click(Object sender, EventArgs e) na d:\web\localuser\vacinas\www\pagamentos.aspx.cs:linha 254
|EXTRA: 
--------------------------------------------------------------------------------

2023-03-29 15:40:54
|ORIGEM: ImunneVacinas
|EMPRESA: -1
|USER: -1
|ERRO: O nome remoto não pôde ser resolvido: 'gateway.yapay.com.br'
|TIPO: System.Net.WebException
|TRACE:    em System.Net.HttpWebRequest.GetRequestStream(TransportContext& context)
   em System.Net.HttpWebRequest.GetRequestStream()
   em ImunneVacinas.Pagamento.ValidarPagamento(Integracao integracao) na d:\web\localuser\vacinas\www\App_Code\Pagamentos.cs:linha 36
|EXTRA: 
--------------------------------------------------------------------------------

2023-03-29 15:40:54
|ORIGEM: ImunneVacinas
|EMPRESA: -1
|USER: -1
|ERRO: S&A Imunizações | parâmetros com valores inválidos
|TIPO: System.Exception
|TRACE:    em ImunneVacinas.TransacaoRealizada.ConsultarUnico(Int32 compra, Int32 transacao) na d:\web\localuser\vacinas\www\App_Code\Transacoes.cs:linha 309
   em ImunneVacinas.TransacaoRealizada.ExisteBD() na d:\web\localuser\vacinas\www\App_Code\Transacoes.cs:linha 332
   em imunne_pagamentos.LnkContinuar_Click(Object sender, EventArgs e) na d:\web\localuser\vacinas\www\pagamentos.aspx.cs:linha 254
|EXTRA: 
--------------------------------------------------------------------------------

2023-03-29 15:41:11
|ORIGEM: ImunneVacinas
|EMPRESA: -1
|USER: -1
|ERRO: O nome remoto não pôde ser resolvido: 'gateway.yapay.com.br'
|TIPO: System.Net.WebException
|TRACE:    em System.Net.HttpWebRequest.GetRequestStream(TransportContext& context)
   em System.Net.HttpWebRequest.GetRequestStream()
   em ImunneVacinas.Pagamento.ValidarPagamento(Integracao integracao) na d:\web\localuser\vacinas\www\App_Code\Pagamentos.cs:linha 36
|EXTRA: 
--------------------------------------------------------------------------------

2023-03-29 15:41:11
|ORIGEM: ImunneVacinas
|EMPRESA: -1
|USER: -1
|ERRO: S&A Imunizações | parâmetros com valores inválidos
|TIPO: System.Exception
|TRACE:    em ImunneVacinas.TransacaoRealizada.ConsultarUnico(Int32 compra, Int32 transacao) na d:\web\localuser\vacinas\www\App_Code\Transacoes.cs:linha 309
   em ImunneVacinas.TransacaoRealizada.ExisteBD() na d:\web\localuser\vacinas\www\App_Code\Transacoes.cs:linha 332
   em imunne_pagamentos.LnkContinuar_Click(Object sender, EventArgs e) na d:\web\localuser\vacinas\www\pagamentos.aspx.cs:linha 254
|EXTRA: 
--------------------------------------------------------------------------------

2023-03-29 15:41:36
|ORIGEM: ImunneVacinas
|EMPRESA: -1
|USER: -1
|ERRO: O nome remoto não pôde ser resolvido: 'gateway.yapay.com.br'
|TIPO: System.Net.WebException
|TRACE:    em System.Net.HttpWebRequest.GetRequestStream(TransportContext& context)
   em System.Net.HttpWebRequest.GetRequestStream()
   em ImunneVacinas.Pagamento.ValidarPagamento(Integracao integracao) na d:\web\localuser\vacinas\www\App_Code\Pagamentos.cs:linha 36
|EXTRA: 
--------------------------------------------------------------------------------

2023-03-29 15:41:36
|ORIGEM: ImunneVacinas
|EMPRESA: -1
|USER: -1
|ERRO: S&A Imunizações | parâmetros com valores inválidos
|TIPO: System.Exception
|TRACE:    em ImunneVacinas.TransacaoRealizada.ConsultarUnico(Int32 compra, Int32 transacao) na d:\web\localuser\vacinas\www\App_Code\Transacoes.cs:linha 309
   em ImunneVacinas.TransacaoRealizada.ExisteBD() na d:\web\localuser\vacinas\www\App_Code\Transacoes.cs:linha 332
   em imunne_pagamentos.LnkContinuar_Click(Object sender, EventArgs e) na d:\web\localuser\vacinas\www\pagamentos.aspx.cs:linha 254
|EXTRA: 
--------------------------------------------------------------------------------

2023-03-29 15:41:38
|ORIGEM: ImunneVacinas
|EMPRESA: -1
|USER: -1
|ERRO: O nome remoto não pôde ser resolvido: 'gateway.yapay.com.br'
|TIPO: System.Net.WebException
|TRACE:    em System.Net.HttpWebRequest.GetRequestStream(TransportContext& context)
   em System.Net.HttpWebRequest.GetRequestStream()
   em ImunneVacinas.Pagamento.ValidarPagamento(Integracao integracao) na d:\web\localuser\vacinas\www\App_Code\Pagamentos.cs:linha 36
|EXTRA: 
--------------------------------------------------------------------------------

2023-03-29 15:41:38
|ORIGEM: ImunneVacinas
|EMPRESA: -1
|USER: -1
|ERRO: S&A Imunizações | parâmetros com valores inválidos
|TIPO: System.Exception
|TRACE:    em ImunneVacinas.TransacaoRealizada.ConsultarUnico(Int32 compra, Int32 transacao) na d:\web\localuser\vacinas\www\App_Code\Transacoes.cs:linha 309
   em ImunneVacinas.TransacaoRealizada.ExisteBD() na d:\web\localuser\vacinas\www\App_Code\Transacoes.cs:linha 332
   em imunne_pagamentos.LnkContinuar_Click(Object sender, EventArgs e) na d:\web\localuser\vacinas\www\pagamentos.aspx.cs:linha 254
|EXTRA: 
--------------------------------------------------------------------------------

2023-03-29 15:41:41
|ORIGEM: ImunneVacinas
|EMPRESA: -1
|USER: -1
|ERRO: O nome remoto não pôde ser resolvido: 'gateway.yapay.com.br'
|TIPO: System.Net.WebException
|TRACE:    em System.Net.HttpWebRequest.GetRequestStream(TransportContext& context)
   em System.Net.HttpWebRequest.GetRequestStream()
   em ImunneVacinas.Pagamento.ValidarPagamento(Integracao integracao) na d:\web\localuser\vacinas\www\App_Code\Pagamentos.cs:linha 36
|EXTRA: 
--------------------------------------------------------------------------------

2023-03-29 15:41:41
|ORIGEM: ImunneVacinas
|EMPRESA: -1
|USER: -1
|ERRO: S&A Imunizações | parâmetros com valores inválidos
|TIPO: System.Exception
|TRACE:    em ImunneVacinas.TransacaoRealizada.ConsultarUnico(Int32 compra, Int32 transacao) na d:\web\localuser\vacinas\www\App_Code\Transacoes.cs:linha 309
   em ImunneVacinas.TransacaoRealizada.ExisteBD() na d:\web\localuser\vacinas\www\App_Code\Transacoes.cs:linha 332
   em imunne_pagamentos.LnkContinuar_Click(Object sender, EventArgs e) na d:\web\localuser\vacinas\www\pagamentos.aspx.cs:linha 254
|EXTRA: 
--------------------------------------------------------------------------------

2023-03-29 15:42:02
|ORIGEM: ImunneVacinas
|EMPRESA: -1
|USER: -1
|ERRO: O nome remoto não pôde ser resolvido: 'gateway.yapay.com.br'
|TIPO: System.Net.WebException
|TRACE:    em System.Net.HttpWebRequest.GetRequestStream(TransportContext& context)
   em System.Net.HttpWebRequest.GetRequestStream()
   em ImunneVacinas.Pagamento.ValidarPagamento(Integracao integracao) na d:\web\localuser\vacinas\www\App_Code\Pagamentos.cs:linha 36
|EXTRA: 
--------------------------------------------------------------------------------

2023-03-29 15:42:02
|ORIGEM: ImunneVacinas
|EMPRESA: -1
|USER: -1
|ERRO: S&A Imunizações | parâmetros com valores inválidos
|TIPO: System.Exception
|TRACE:    em ImunneVacinas.TransacaoRealizada.ConsultarUnico(Int32 compra, Int32 transacao) na d:\web\localuser\vacinas\www\App_Code\Transacoes.cs:linha 309
   em ImunneVacinas.TransacaoRealizada.ExisteBD() na d:\web\localuser\vacinas\www\App_Code\Transacoes.cs:linha 332
   em imunne_pagamentos.LnkContinuar_Click(Object sender, EventArgs e) na d:\web\localuser\vacinas\www\pagamentos.aspx.cs:linha 254
|EXTRA: 
--------------------------------------------------------------------------------

2023-03-29 15:42:05
|ORIGEM: ImunneVacinas
|EMPRESA: -1
|USER: -1
|ERRO: O nome remoto não pôde ser resolvido: 'gateway.yapay.com.br'
|TIPO: System.Net.WebException
|TRACE:    em System.Net.HttpWebRequest.GetRequestStream(TransportContext& context)
   em System.Net.HttpWebRequest.GetRequestStream()
   em ImunneVacinas.Pagamento.ValidarPagamento(Integracao integracao) na d:\web\localuser\vacinas\www\App_Code\Pagamentos.cs:linha 36
|EXTRA: 
--------------------------------------------------------------------------------

2023-03-29 15:42:05
|ORIGEM: ImunneVacinas
|EMPRESA: -1
|USER: -1
|ERRO: S&A Imunizações | parâmetros com valores inválidos
|TIPO: System.Exception
|TRACE:    em ImunneVacinas.TransacaoRealizada.ConsultarUnico(Int32 compra, Int32 transacao) na d:\web\localuser\vacinas\www\App_Code\Transacoes.cs:linha 309
   em ImunneVacinas.TransacaoRealizada.ExisteBD() na d:\web\localuser\vacinas\www\App_Code\Transacoes.cs:linha 332
   em imunne_pagamentos.LnkContinuar_Click(Object sender, EventArgs e) na d:\web\localuser\vacinas\www\pagamentos.aspx.cs:linha 254
|EXTRA: 
--------------------------------------------------------------------------------

2023-03-29 15:42:40
|ORIGEM: ImunneVacinas
|EMPRESA: -1
|USER: -1
|ERRO: O nome remoto não pôde ser resolvido: 'gateway.yapay.com.br'
|TIPO: System.Net.WebException
|TRACE:    em System.Net.HttpWebRequest.GetRequestStream(TransportContext& context)
   em System.Net.HttpWebRequest.GetRequestStream()
   em ImunneVacinas.Pagamento.ValidarPagamento(Integracao integracao) na d:\web\localuser\vacinas\www\App_Code\Pagamentos.cs:linha 36
|EXTRA: 
--------------------------------------------------------------------------------

2023-03-29 15:42:40
|ORIGEM: ImunneVacinas
|EMPRESA: -1
|USER: -1
|ERRO: S&A Imunizações | parâmetros com valores inválidos
|TIPO: System.Exception
|TRACE:    em ImunneVacinas.TransacaoRealizada.ConsultarUnico(Int32 compra, Int32 transacao) na d:\web\localuser\vacinas\www\App_Code\Transacoes.cs:linha 309
   em ImunneVacinas.TransacaoRealizada.ExisteBD() na d:\web\localuser\vacinas\www\App_Code\Transacoes.cs:linha 332
   em imunne_pagamentos.LnkContinuar_Click(Object sender, EventArgs e) na d:\web\localuser\vacinas\www\pagamentos.aspx.cs:linha 254
|EXTRA: 
--------------------------------------------------------------------------------

2023-03-29 15:42:44
|ORIGEM: ImunneVacinas
|EMPRESA: -1
|USER: -1
|ERRO: O nome remoto não pôde ser resolvido: 'gateway.yapay.com.br'
|TIPO: System.Net.WebException
|TRACE:    em System.Net.HttpWebRequest.GetRequestStream(TransportContext& context)
   em System.Net.HttpWebRequest.GetRequestStream()
   em ImunneVacinas.Pagamento.ValidarPagamento(Integracao integracao) na d:\web\localuser\vacinas\www\App_Code\Pagamentos.cs:linha 36
|EXTRA: 
--------------------------------------------------------------------------------

2023-03-29 15:42:44
|ORIGEM: ImunneVacinas
|EMPRESA: -1
|USER: -1
|ERRO: S&A Imunizações | parâmetros com valores inválidos
|TIPO: System.Exception
|TRACE:    em ImunneVacinas.TransacaoRealizada.ConsultarUnico(Int32 compra, Int32 transacao) na d:\web\localuser\vacinas\www\App_Code\Transacoes.cs:linha 309
   em ImunneVacinas.TransacaoRealizada.ExisteBD() na d:\web\localuser\vacinas\www\App_Code\Transacoes.cs:linha 332
   em imunne_pagamentos.LnkContinuar_Click(Object sender, EventArgs e) na d:\web\localuser\vacinas\www\pagamentos.aspx.cs:linha 254
|EXTRA: 
--------------------------------------------------------------------------------

2023-03-29 15:42:48
|ORIGEM: ImunneVacinas
|EMPRESA: -1
|USER: -1
|ERRO: O nome remoto não pôde ser resolvido: 'gateway.yapay.com.br'
|TIPO: System.Net.WebException
|TRACE:    em System.Net.HttpWebRequest.GetRequestStream(TransportContext& context)
   em System.Net.HttpWebRequest.GetRequestStream()
   em ImunneVacinas.Pagamento.ValidarPagamento(Integracao integracao) na d:\web\localuser\vacinas\www\App_Code\Pagamentos.cs:linha 36
|EXTRA: 
--------------------------------------------------------------------------------

2023-03-29 15:42:48
|ORIGEM: ImunneVacinas
|EMPRESA: -1
|USER: -1
|ERRO: S&A Imunizações | parâmetros com valores inválidos
|TIPO: System.Exception
|TRACE:    em ImunneVacinas.TransacaoRealizada.ConsultarUnico(Int32 compra, Int32 transacao) na d:\web\localuser\vacinas\www\App_Code\Transacoes.cs:linha 309
   em ImunneVacinas.TransacaoRealizada.ExisteBD() na d:\web\localuser\vacinas\www\App_Code\Transacoes.cs:linha 332
   em imunne_pagamentos.LnkContinuar_Click(Object sender, EventArgs e) na d:\web\localuser\vacinas\www\pagamentos.aspx.cs:linha 254
|EXTRA: 
--------------------------------------------------------------------------------

2023-03-29 15:42:53
|ORIGEM: ImunneVacinas
|EMPRESA: -1
|USER: -1
|ERRO: O nome remoto não pôde ser resolvido: 'gateway.yapay.com.br'
|TIPO: System.Net.WebException
|TRACE:    em System.Net.HttpWebRequest.GetRequestStream(TransportContext& context)
   em System.Net.HttpWebRequest.GetRequestStream()
   em ImunneVacinas.Pagamento.ValidarPagamento(Integracao integracao) na d:\web\localuser\vacinas\www\App_Code\Pagamentos.cs:linha 36
|EXTRA: 
--------------------------------------------------------------------------------

2023-03-29 15:42:53
|ORIGEM: ImunneVacinas
|EMPRESA: -1
|USER: -1
|ERRO: S&A Imunizações | parâmetros com valores inválidos
|TIPO: System.Exception
|TRACE:    em ImunneVacinas.TransacaoRealizada.ConsultarUnico(Int32 compra, Int32 transacao) na d:\web\localuser\vacinas\www\App_Code\Transacoes.cs:linha 309
   em ImunneVacinas.TransacaoRealizada.ExisteBD() na d:\web\localuser\vacinas\www\App_Code\Transacoes.cs:linha 332
   em imunne_pagamentos.LnkContinuar_Click(Object sender, EventArgs e) na d:\web\localuser\vacinas\www\pagamentos.aspx.cs:linha 254
|EXTRA: 
--------------------------------------------------------------------------------

2023-03-29 15:42:56
|ORIGEM: ImunneVacinas
|EMPRESA: -1
|USER: -1
|ERRO: O nome remoto não pôde ser resolvido: 'gateway.yapay.com.br'
|TIPO: System.Net.WebException
|TRACE:    em System.Net.HttpWebRequest.GetRequestStream(TransportContext& context)
   em System.Net.HttpWebRequest.GetRequestStream()
   em ImunneVacinas.Pagamento.ValidarPagamento(Integracao integracao) na d:\web\localuser\vacinas\www\App_Code\Pagamentos.cs:linha 36
|EXTRA: 
--------------------------------------------------------------------------------

2023-03-29 15:42:56
|ORIGEM: ImunneVacinas
|EMPRESA: -1
|USER: -1
|ERRO: S&A Imunizações | parâmetros com valores inválidos
|TIPO: System.Exception
|TRACE:    em ImunneVacinas.TransacaoRealizada.ConsultarUnico(Int32 compra, Int32 transacao) na d:\web\localuser\vacinas\www\App_Code\Transacoes.cs:linha 309
   em ImunneVacinas.TransacaoRealizada.ExisteBD() na d:\web\localuser\vacinas\www\App_Code\Transacoes.cs:linha 332
   em imunne_pagamentos.LnkContinuar_Click(Object sender, EventArgs e) na d:\web\localuser\vacinas\www\pagamentos.aspx.cs:linha 254
|EXTRA: 
--------------------------------------------------------------------------------

2023-03-29 15:43:09
|ORIGEM: ImunneVacinas
|EMPRESA: -1
|USER: -1
|ERRO: O nome remoto não pôde ser resolvido: 'gateway.yapay.com.br'
|TIPO: System.Net.WebException
|TRACE:    em System.Net.HttpWebRequest.GetRequestStream(TransportContext& context)
   em System.Net.HttpWebRequest.GetRequestStream()
   em ImunneVacinas.Pagamento.ValidarPagamento(Integracao integracao) na d:\web\localuser\vacinas\www\App_Code\Pagamentos.cs:linha 36
|EXTRA: 
--------------------------------------------------------------------------------

2023-03-29 15:43:09
|ORIGEM: ImunneVacinas
|EMPRESA: -1
|USER: -1
|ERRO: S&A Imunizações | parâmetros com valores inválidos
|TIPO: System.Exception
|TRACE:    em ImunneVacinas.TransacaoRealizada.ConsultarUnico(Int32 compra, Int32 transacao) na d:\web\localuser\vacinas\www\App_Code\Transacoes.cs:linha 309
   em ImunneVacinas.TransacaoRealizada.ExisteBD() na d:\web\localuser\vacinas\www\App_Code\Transacoes.cs:linha 332
   em imunne_pagamentos.LnkContinuar_Click(Object sender, EventArgs e) na d:\web\localuser\vacinas\www\pagamentos.aspx.cs:linha 254
|EXTRA: 
--------------------------------------------------------------------------------

2023-03-29 15:43:13
|ORIGEM: ImunneVacinas
|EMPRESA: -1
|USER: -1
|ERRO: O nome remoto não pôde ser resolvido: 'gateway.yapay.com.br'
|TIPO: System.Net.WebException
|TRACE:    em System.Net.HttpWebRequest.GetRequestStream(TransportContext& context)
   em System.Net.HttpWebRequest.GetRequestStream()
   em ImunneVacinas.Pagamento.ValidarPagamento(Integracao integracao) na d:\web\localuser\vacinas\www\App_Code\Pagamentos.cs:linha 36
|EXTRA: 
--------------------------------------------------------------------------------

2023-03-29 15:43:13
|ORIGEM: ImunneVacinas
|EMPRESA: -1
|USER: -1
|ERRO: S&A Imunizações | parâmetros com valores inválidos
|TIPO: System.Exception
|TRACE:    em ImunneVacinas.TransacaoRealizada.ConsultarUnico(Int32 compra, Int32 transacao) na d:\web\localuser\vacinas\www\App_Code\Transacoes.cs:linha 309
   em ImunneVacinas.TransacaoRealizada.ExisteBD() na d:\web\localuser\vacinas\www\App_Code\Transacoes.cs:linha 332
   em imunne_pagamentos.LnkContinuar_Click(Object sender, EventArgs e) na d:\web\localuser\vacinas\www\pagamentos.aspx.cs:linha 254
|EXTRA: 
--------------------------------------------------------------------------------

2023-03-29 15:43:15
|ORIGEM: ImunneVacinas
|EMPRESA: -1
|USER: -1
|ERRO: O nome remoto não pôde ser resolvido: 'gateway.yapay.com.br'
|TIPO: System.Net.WebException
|TRACE:    em System.Net.HttpWebRequest.GetRequestStream(TransportContext& context)
   em System.Net.HttpWebRequest.GetRequestStream()
   em ImunneVacinas.Pagamento.ValidarPagamento(Integracao integracao) na d:\web\localuser\vacinas\www\App_Code\Pagamentos.cs:linha 36
|EXTRA: 
--------------------------------------------------------------------------------

2023-03-29 15:43:15
|ORIGEM: ImunneVacinas
|EMPRESA: -1
|USER: -1
|ERRO: S&A Imunizações | parâmetros com valores inválidos
|TIPO: System.Exception
|TRACE:    em ImunneVacinas.TransacaoRealizada.ConsultarUnico(Int32 compra, Int32 transacao) na d:\web\localuser\vacinas\www\App_Code\Transacoes.cs:linha 309
   em ImunneVacinas.TransacaoRealizada.ExisteBD() na d:\web\localuser\vacinas\www\App_Code\Transacoes.cs:linha 332
   em imunne_pagamentos.LnkContinuar_Click(Object sender, EventArgs e) na d:\web\localuser\vacinas\www\pagamentos.aspx.cs:linha 254
|EXTRA: 
--------------------------------------------------------------------------------

2023-03-29 15:43:19
|ORIGEM: ImunneVacinas
|EMPRESA: -1
|USER: -1
|ERRO: O nome remoto não pôde ser resolvido: 'gateway.yapay.com.br'
|TIPO: System.Net.WebException
|TRACE:    em System.Net.HttpWebRequest.GetRequestStream(TransportContext& context)
   em System.Net.HttpWebRequest.GetRequestStream()
   em ImunneVacinas.Pagamento.ValidarPagamento(Integracao integracao) na d:\web\localuser\vacinas\www\App_Code\Pagamentos.cs:linha 36
|EXTRA: 
--------------------------------------------------------------------------------

2023-03-29 15:43:19
|ORIGEM: ImunneVacinas
|EMPRESA: -1
|USER: -1
|ERRO: S&A Imunizações | parâmetros com valores inválidos
|TIPO: System.Exception
|TRACE:    em ImunneVacinas.TransacaoRealizada.ConsultarUnico(Int32 compra, Int32 transacao) na d:\web\localuser\vacinas\www\App_Code\Transacoes.cs:linha 309
   em ImunneVacinas.TransacaoRealizada.ExisteBD() na d:\web\localuser\vacinas\www\App_Code\Transacoes.cs:linha 332
   em imunne_pagamentos.LnkContinuar_Click(Object sender, EventArgs e) na d:\web\localuser\vacinas\www\pagamentos.aspx.cs:linha 254
|EXTRA: 
--------------------------------------------------------------------------------

2023-03-29 15:43:23
|ORIGEM: ImunneVacinas
|EMPRESA: -1
|USER: -1
|ERRO: O nome remoto não pôde ser resolvido: 'gateway.yapay.com.br'
|TIPO: System.Net.WebException
|TRACE:    em System.Net.HttpWebRequest.GetRequestStream(TransportContext& context)
   em System.Net.HttpWebRequest.GetRequestStream()
   em ImunneVacinas.Pagamento.ValidarPagamento(Integracao integracao) na d:\web\localuser\vacinas\www\App_Code\Pagamentos.cs:linha 36
|EXTRA: 
--------------------------------------------------------------------------------

2023-03-29 15:43:23
|ORIGEM: ImunneVacinas
|EMPRESA: -1
|USER: -1
|ERRO: S&A Imunizações | parâmetros com valores inválidos
|TIPO: System.Exception
|TRACE:    em ImunneVacinas.TransacaoRealizada.ConsultarUnico(Int32 compra, Int32 transacao) na d:\web\localuser\vacinas\www\App_Code\Transacoes.cs:linha 309
   em ImunneVacinas.TransacaoRealizada.ExisteBD() na d:\web\localuser\vacinas\www\App_Code\Transacoes.cs:linha 332
   em imunne_pagamentos.LnkContinuar_Click(Object sender, EventArgs e) na d:\web\localuser\vacinas\www\pagamentos.aspx.cs:linha 254
|EXTRA: 
--------------------------------------------------------------------------------

2023-03-29 15:44:17
|ORIGEM: ImunneVacinas
|EMPRESA: -1
|USER: -1
|ERRO: O nome remoto não pôde ser resolvido: 'gateway.yapay.com.br'
|TIPO: System.Net.WebException
|TRACE:    em System.Net.HttpWebRequest.GetRequestStream(TransportContext& context)
   em System.Net.HttpWebRequest.GetRequestStream()
   em ImunneVacinas.Pagamento.ValidarPagamento(Integracao integracao) na d:\web\localuser\vacinas\www\App_Code\Pagamentos.cs:linha 36
|EXTRA: 
--------------------------------------------------------------------------------

2023-03-29 15:44:17
|ORIGEM: ImunneVacinas
|EMPRESA: -1
|USER: -1
|ERRO: S&A Imunizações | parâmetros com valores inválidos
|TIPO: System.Exception
|TRACE:    em ImunneVacinas.TransacaoRealizada.ConsultarUnico(Int32 compra, Int32 transacao) na d:\web\localuser\vacinas\www\App_Code\Transacoes.cs:linha 309
   em ImunneVacinas.TransacaoRealizada.ExisteBD() na d:\web\localuser\vacinas\www\App_Code\Transacoes.cs:linha 332
   em imunne_pagamentos.LnkContinuar_Click(Object sender, EventArgs e) na d:\web\localuser\vacinas\www\pagamentos.aspx.cs:linha 254
|EXTRA: 
--------------------------------------------------------------------------------

2023-03-29 15:44:24
|ORIGEM: ImunneVacinas
|EMPRESA: -1
|USER: -1
|ERRO: O nome remoto não pôde ser resolvido: 'gateway.yapay.com.br'
|TIPO: System.Net.WebException
|TRACE:    em System.Net.HttpWebRequest.GetRequestStream(TransportContext& context)
   em System.Net.HttpWebRequest.GetRequestStream()
   em ImunneVacinas.Pagamento.ValidarPagamento(Integracao integracao) na d:\web\localuser\vacinas\www\App_Code\Pagamentos.cs:linha 36
|EXTRA: 
--------------------------------------------------------------------------------

2023-03-29 15:44:24
|ORIGEM: ImunneVacinas
|EMPRESA: -1
|USER: -1
|ERRO: S&A Imunizações | parâmetros com valores inválidos
|TIPO: System.Exception
|TRACE:    em ImunneVacinas.TransacaoRealizada.ConsultarUnico(Int32 compra, Int32 transacao) na d:\web\localuser\vacinas\www\App_Code\Transacoes.cs:linha 309
   em ImunneVacinas.TransacaoRealizada.ExisteBD() na d:\web\localuser\vacinas\www\App_Code\Transacoes.cs:linha 332
   em imunne_pagamentos.LnkContinuar_Click(Object sender, EventArgs e) na d:\web\localuser\vacinas\www\pagamentos.aspx.cs:linha 254
|EXTRA: 
--------------------------------------------------------------------------------

2023-03-29 15:44:40
|ORIGEM: ImunneVacinas
|EMPRESA: -1
|USER: -1
|ERRO: O nome remoto não pôde ser resolvido: 'gateway.yapay.com.br'
|TIPO: System.Net.WebException
|TRACE:    em System.Net.HttpWebRequest.GetRequestStream(TransportContext& context)
   em System.Net.HttpWebRequest.GetRequestStream()
   em ImunneVacinas.Pagamento.ValidarPagamento(Integracao integracao) na d:\web\localuser\vacinas\www\App_Code\Pagamentos.cs:linha 36
|EXTRA: 
--------------------------------------------------------------------------------

2023-03-29 15:44:40
|ORIGEM: ImunneVacinas
|EMPRESA: -1
|USER: -1
|ERRO: S&A Imunizações | parâmetros com valores inválidos
|TIPO: System.Exception
|TRACE:    em ImunneVacinas.TransacaoRealizada.ConsultarUnico(Int32 compra, Int32 transacao) na d:\web\localuser\vacinas\www\App_Code\Transacoes.cs:linha 309
   em ImunneVacinas.TransacaoRealizada.ExisteBD() na d:\web\localuser\vacinas\www\App_Code\Transacoes.cs:linha 332
   em imunne_pagamentos.LnkContinuar_Click(Object sender, EventArgs e) na d:\web\localuser\vacinas\www\pagamentos.aspx.cs:linha 254
|EXTRA: 
--------------------------------------------------------------------------------

2023-03-29 15:44:44
|ORIGEM: ImunneVacinas
|EMPRESA: -1
|USER: -1
|ERRO: O nome remoto não pôde ser resolvido: 'gateway.yapay.com.br'
|TIPO: System.Net.WebException
|TRACE:    em System.Net.HttpWebRequest.GetRequestStream(TransportContext& context)
   em System.Net.HttpWebRequest.GetRequestStream()
   em ImunneVacinas.Pagamento.ValidarPagamento(Integracao integracao) na d:\web\localuser\vacinas\www\App_Code\Pagamentos.cs:linha 36
|EXTRA: 
--------------------------------------------------------------------------------

2023-03-29 15:44:44
|ORIGEM: ImunneVacinas
|EMPRESA: -1
|USER: -1
|ERRO: S&A Imunizações | parâmetros com valores inválidos
|TIPO: System.Exception
|TRACE:    em ImunneVacinas.TransacaoRealizada.ConsultarUnico(Int32 compra, Int32 transacao) na d:\web\localuser\vacinas\www\App_Code\Transacoes.cs:linha 309
   em ImunneVacinas.TransacaoRealizada.ExisteBD() na d:\web\localuser\vacinas\www\App_Code\Transacoes.cs:linha 332
   em imunne_pagamentos.LnkContinuar_Click(Object sender, EventArgs e) na d:\web\localuser\vacinas\www\pagamentos.aspx.cs:linha 254
|EXTRA: 
--------------------------------------------------------------------------------

2023-03-29 15:44:50
|ORIGEM: ImunneVacinas
|EMPRESA: -1
|USER: -1
|ERRO: O nome remoto não pôde ser resolvido: 'gateway.yapay.com.br'
|TIPO: System.Net.WebException
|TRACE:    em System.Net.HttpWebRequest.GetRequestStream(TransportContext& context)
   em System.Net.HttpWebRequest.GetRequestStream()
   em ImunneVacinas.Pagamento.ValidarPagamento(Integracao integracao) na d:\web\localuser\vacinas\www\App_Code\Pagamentos.cs:linha 36
|EXTRA: 
--------------------------------------------------------------------------------

2023-03-29 15:44:50
|ORIGEM: ImunneVacinas
|EMPRESA: -1
|USER: -1
|ERRO: S&A Imunizações | parâmetros com valores inválidos
|TIPO: System.Exception
|TRACE:    em ImunneVacinas.TransacaoRealizada.ConsultarUnico(Int32 compra, Int32 transacao) na d:\web\localuser\vacinas\www\App_Code\Transacoes.cs:linha 309
   em ImunneVacinas.TransacaoRealizada.ExisteBD() na d:\web\localuser\vacinas\www\App_Code\Transacoes.cs:linha 332
   em imunne_pagamentos.LnkContinuar_Click(Object sender, EventArgs e) na d:\web\localuser\vacinas\www\pagamentos.aspx.cs:linha 254
|EXTRA: 
--------------------------------------------------------------------------------

2023-03-29 15:48:41
|ORIGEM: ImunneVacinas
|EMPRESA: -1
|USER: -1
|ERRO: O nome remoto não pôde ser resolvido: 'gateway.yapay.com.br'
|TIPO: System.Net.WebException
|TRACE:    em System.Net.HttpWebRequest.GetRequestStream(TransportContext& context)
   em System.Net.HttpWebRequest.GetRequestStream()
   em ImunneVacinas.Pagamento.ValidarPagamento(Integracao integracao) na d:\web\localuser\vacinas\www\App_Code\Pagamentos.cs:linha 36
|EXTRA: 
--------------------------------------------------------------------------------

2023-03-29 15:48:41
|ORIGEM: ImunneVacinas
|EMPRESA: -1
|USER: -1
|ERRO: S&A Imunizações | parâmetros com valores inválidos
|TIPO: System.Exception
|TRACE:    em ImunneVacinas.TransacaoRealizada.ConsultarUnico(Int32 compra, Int32 transacao) na d:\web\localuser\vacinas\www\App_Code\Transacoes.cs:linha 309
   em ImunneVacinas.TransacaoRealizada.ExisteBD() na d:\web\localuser\vacinas\www\App_Code\Transacoes.cs:linha 332
   em imunne_pagamentos.LnkContinuar_Click(Object sender, EventArgs e) na d:\web\localuser\vacinas\www\pagamentos.aspx.cs:linha 254
|EXTRA: 
--------------------------------------------------------------------------------

2023-03-29 15:48:45
|ORIGEM: ImunneVacinas
|EMPRESA: -1
|USER: -1
|ERRO: O nome remoto não pôde ser resolvido: 'gateway.yapay.com.br'
|TIPO: System.Net.WebException
|TRACE:    em System.Net.HttpWebRequest.GetRequestStream(TransportContext& context)
   em System.Net.HttpWebRequest.GetRequestStream()
   em ImunneVacinas.Pagamento.ValidarPagamento(Integracao integracao) na d:\web\localuser\vacinas\www\App_Code\Pagamentos.cs:linha 36
|EXTRA: 
--------------------------------------------------------------------------------

2023-03-29 15:48:45
|ORIGEM: ImunneVacinas
|EMPRESA: -1
|USER: -1
|ERRO: S&A Imunizações | parâmetros com valores inválidos
|TIPO: System.Exception
|TRACE:    em ImunneVacinas.TransacaoRealizada.ConsultarUnico(Int32 compra, Int32 transacao) na d:\web\localuser\vacinas\www\App_Code\Transacoes.cs:linha 309
   em ImunneVacinas.TransacaoRealizada.ExisteBD() na d:\web\localuser\vacinas\www\App_Code\Transacoes.cs:linha 332
   em imunne_pagamentos.LnkContinuar_Click(Object sender, EventArgs e) na d:\web\localuser\vacinas\www\pagamentos.aspx.cs:linha 254
|EXTRA: 
--------------------------------------------------------------------------------

2023-03-29 15:49:42
|ORIGEM: ImunneVacinas
|EMPRESA: -1
|USER: -1
|ERRO: O nome remoto não pôde ser resolvido: 'gateway.yapay.com.br'
|TIPO: System.Net.WebException
|TRACE:    em System.Net.HttpWebRequest.GetRequestStream(TransportContext& context)
   em System.Net.HttpWebRequest.GetRequestStream()
   em ImunneVacinas.Pagamento.ValidarPagamento(Integracao integracao) na d:\web\localuser\vacinas\www\App_Code\Pagamentos.cs:linha 36
|EXTRA: 
--------------------------------------------------------------------------------

2023-03-29 15:49:42
|ORIGEM: ImunneVacinas
|EMPRESA: -1
|USER: -1
|ERRO: S&A Imunizações | parâmetros com valores inválidos
|TIPO: System.Exception
|TRACE:    em ImunneVacinas.TransacaoRealizada.ConsultarUnico(Int32 compra, Int32 transacao) na d:\web\localuser\vacinas\www\App_Code\Transacoes.cs:linha 309
   em ImunneVacinas.TransacaoRealizada.ExisteBD() na d:\web\localuser\vacinas\www\App_Code\Transacoes.cs:linha 332
   em imunne_pagamentos.LnkContinuar_Click(Object sender, EventArgs e) na d:\web\localuser\vacinas\www\pagamentos.aspx.cs:linha 254
|EXTRA: 
--------------------------------------------------------------------------------

2023-03-29 15:49:45
|ORIGEM: ImunneVacinas
|EMPRESA: -1
|USER: -1
|ERRO: O nome remoto não pôde ser resolvido: 'gateway.yapay.com.br'
|TIPO: System.Net.WebException
|TRACE:    em System.Net.HttpWebRequest.GetRequestStream(TransportContext& context)
   em System.Net.HttpWebRequest.GetRequestStream()
   em ImunneVacinas.Pagamento.ValidarPagamento(Integracao integracao) na d:\web\localuser\vacinas\www\App_Code\Pagamentos.cs:linha 36
|EXTRA: 
--------------------------------------------------------------------------------

2023-03-29 15:49:45
|ORIGEM: ImunneVacinas
|EMPRESA: -1
|USER: -1
|ERRO: S&A Imunizações | parâmetros com valores inválidos
|TIPO: System.Exception
|TRACE:    em ImunneVacinas.TransacaoRealizada.ConsultarUnico(Int32 compra, Int32 transacao) na d:\web\localuser\vacinas\www\App_Code\Transacoes.cs:linha 309
   em ImunneVacinas.TransacaoRealizada.ExisteBD() na d:\web\localuser\vacinas\www\App_Code\Transacoes.cs:linha 332
   em imunne_pagamentos.LnkContinuar_Click(Object sender, EventArgs e) na d:\web\localuser\vacinas\www\pagamentos.aspx.cs:linha 254
|EXTRA: 
--------------------------------------------------------------------------------

2023-03-29 15:50:07
|ORIGEM: ImunneVacinas
|EMPRESA: -1
|USER: -1
|ERRO: O nome remoto não pôde ser resolvido: 'gateway.yapay.com.br'
|TIPO: System.Net.WebException
|TRACE:    em System.Net.HttpWebRequest.GetRequestStream(TransportContext& context)
   em System.Net.HttpWebRequest.GetRequestStream()
   em ImunneVacinas.Pagamento.ValidarPagamento(Integracao integracao) na d:\web\localuser\vacinas\www\App_Code\Pagamentos.cs:linha 36
|EXTRA: 
--------------------------------------------------------------------------------

2023-03-29 15:50:07
|ORIGEM: ImunneVacinas
|EMPRESA: -1
|USER: -1
|ERRO: S&A Imunizações | parâmetros com valores inválidos
|TIPO: System.Exception
|TRACE:    em ImunneVacinas.TransacaoRealizada.ConsultarUnico(Int32 compra, Int32 transacao) na d:\web\localuser\vacinas\www\App_Code\Transacoes.cs:linha 309
   em ImunneVacinas.TransacaoRealizada.ExisteBD() na d:\web\localuser\vacinas\www\App_Code\Transacoes.cs:linha 332
   em imunne_pagamentos.LnkContinuar_Click(Object sender, EventArgs e) na d:\web\localuser\vacinas\www\pagamentos.aspx.cs:linha 254
|EXTRA: 
--------------------------------------------------------------------------------

2023-03-29 15:50:11
|ORIGEM: ImunneVacinas
|EMPRESA: -1
|USER: -1
|ERRO: O nome remoto não pôde ser resolvido: 'gateway.yapay.com.br'
|TIPO: System.Net.WebException
|TRACE:    em System.Net.HttpWebRequest.GetRequestStream(TransportContext& context)
   em System.Net.HttpWebRequest.GetRequestStream()
   em ImunneVacinas.Pagamento.ValidarPagamento(Integracao integracao) na d:\web\localuser\vacinas\www\App_Code\Pagamentos.cs:linha 36
|EXTRA: 
--------------------------------------------------------------------------------

2023-03-29 15:50:11
|ORIGEM: ImunneVacinas
|EMPRESA: -1
|USER: -1
|ERRO: S&A Imunizações | parâmetros com valores inválidos
|TIPO: System.Exception
|TRACE:    em ImunneVacinas.TransacaoRealizada.ConsultarUnico(Int32 compra, Int32 transacao) na d:\web\localuser\vacinas\www\App_Code\Transacoes.cs:linha 309
   em ImunneVacinas.TransacaoRealizada.ExisteBD() na d:\web\localuser\vacinas\www\App_Code\Transacoes.cs:linha 332
   em imunne_pagamentos.LnkContinuar_Click(Object sender, EventArgs e) na d:\web\localuser\vacinas\www\pagamentos.aspx.cs:linha 254
|EXTRA: 
--------------------------------------------------------------------------------

2023-03-29 15:50:14
|ORIGEM: ImunneVacinas
|EMPRESA: -1
|USER: -1
|ERRO: O nome remoto não pôde ser resolvido: 'gateway.yapay.com.br'
|TIPO: System.Net.WebException
|TRACE:    em System.Net.HttpWebRequest.GetRequestStream(TransportContext& context)
   em System.Net.HttpWebRequest.GetRequestStream()
   em ImunneVacinas.Pagamento.ValidarPagamento(Integracao integracao) na d:\web\localuser\vacinas\www\App_Code\Pagamentos.cs:linha 36
|EXTRA: 
--------------------------------------------------------------------------------

2023-03-29 15:50:14
|ORIGEM: ImunneVacinas
|EMPRESA: -1
|USER: -1
|ERRO: S&A Imunizações | parâmetros com valores inválidos
|TIPO: System.Exception
|TRACE:    em ImunneVacinas.TransacaoRealizada.ConsultarUnico(Int32 compra, Int32 transacao) na d:\web\localuser\vacinas\www\App_Code\Transacoes.cs:linha 309
   em ImunneVacinas.TransacaoRealizada.ExisteBD() na d:\web\localuser\vacinas\www\App_Code\Transacoes.cs:linha 332
   em imunne_pagamentos.LnkContinuar_Click(Object sender, EventArgs e) na d:\web\localuser\vacinas\www\pagamentos.aspx.cs:linha 254
|EXTRA: 
--------------------------------------------------------------------------------

2023-03-29 16:06:16
|ORIGEM: ImunneVacinas
|EMPRESA: -1
|USER: -1
|ERRO: O nome remoto não pôde ser resolvido: 'gateway.yapay.com.br'
|TIPO: System.Net.WebException
|TRACE:    em System.Net.HttpWebRequest.GetRequestStream(TransportContext& context)
   em System.Net.HttpWebRequest.GetRequestStream()
   em ImunneVacinas.Pagamento.ValidarPagamento(Integracao integracao) na d:\web\localuser\vacinas\www\App_Code\Pagamentos.cs:linha 36
|EXTRA: 
--------------------------------------------------------------------------------

2023-03-29 16:06:16
|ORIGEM: ImunneVacinas
|EMPRESA: -1
|USER: -1
|ERRO: S&A Imunizações | parâmetros com valores inválidos
|TIPO: System.Exception
|TRACE:    em ImunneVacinas.TransacaoRealizada.ConsultarUnico(Int32 compra, Int32 transacao) na d:\web\localuser\vacinas\www\App_Code\Transacoes.cs:linha 309
   em ImunneVacinas.TransacaoRealizada.ExisteBD() na d:\web\localuser\vacinas\www\App_Code\Transacoes.cs:linha 332
   em imunne_pagamentos.LnkContinuar_Click(Object sender, EventArgs e) na d:\web\localuser\vacinas\www\pagamentos.aspx.cs:linha 254
|EXTRA: 
--------------------------------------------------------------------------------

2023-03-29 16:06:19
|ORIGEM: ImunneVacinas
|EMPRESA: -1
|USER: -1
|ERRO: O nome remoto não pôde ser resolvido: 'gateway.yapay.com.br'
|TIPO: System.Net.WebException
|TRACE:    em System.Net.HttpWebRequest.GetRequestStream(TransportContext& context)
   em System.Net.HttpWebRequest.GetRequestStream()
   em ImunneVacinas.Pagamento.ValidarPagamento(Integracao integracao) na d:\web\localuser\vacinas\www\App_Code\Pagamentos.cs:linha 36
|EXTRA: 
--------------------------------------------------------------------------------

2023-03-29 16:06:19
|ORIGEM: ImunneVacinas
|EMPRESA: -1
|USER: -1
|ERRO: S&A Imunizações | parâmetros com valores inválidos
|TIPO: System.Exception
|TRACE:    em ImunneVacinas.TransacaoRealizada.ConsultarUnico(Int32 compra, Int32 transacao) na d:\web\localuser\vacinas\www\App_Code\Transacoes.cs:linha 309
   em ImunneVacinas.TransacaoRealizada.ExisteBD() na d:\web\localuser\vacinas\www\App_Code\Transacoes.cs:linha 332
   em imunne_pagamentos.LnkContinuar_Click(Object sender, EventArgs e) na d:\web\localuser\vacinas\www\pagamentos.aspx.cs:linha 254
|EXTRA: 
--------------------------------------------------------------------------------

2023-03-29 16:37:31
|ORIGEM: ImunneVacinas
|EMPRESA: -1
|USER: -1
|ERRO: O nome remoto não pôde ser resolvido: 'gateway.yapay.com.br'
|TIPO: System.Net.WebException
|TRACE:    em System.Net.HttpWebRequest.GetRequestStream(TransportContext& context)
   em System.Net.HttpWebRequest.GetRequestStream()
   em ImunneVacinas.Pagamento.ValidarPagamento(Integracao integracao) na d:\web\localuser\vacinas\www\App_Code\Pagamentos.cs:linha 36
|EXTRA: 
--------------------------------------------------------------------------------

2023-03-29 16:37:31
|ORIGEM: ImunneVacinas
|EMPRESA: -1
|USER: -1
|ERRO: S&A Imunizações | parâmetros com valores inválidos
|TIPO: System.Exception
|TRACE:    em ImunneVacinas.TransacaoRealizada.ConsultarUnico(Int32 compra, Int32 transacao) na d:\web\localuser\vacinas\www\App_Code\Transacoes.cs:linha 309
   em ImunneVacinas.TransacaoRealizada.ExisteBD() na d:\web\localuser\vacinas\www\App_Code\Transacoes.cs:linha 332
   em imunne_pagamentos.LnkContinuar_Click(Object sender, EventArgs e) na d:\web\localuser\vacinas\www\pagamentos.aspx.cs:linha 254
|EXTRA: 
--------------------------------------------------------------------------------

2023-03-29 16:37:41
|ORIGEM: ImunneVacinas
|EMPRESA: -1
|USER: -1
|ERRO: O nome remoto não pôde ser resolvido: 'gateway.yapay.com.br'
|TIPO: System.Net.WebException
|TRACE:    em System.Net.HttpWebRequest.GetRequestStream(TransportContext& context)
   em System.Net.HttpWebRequest.GetRequestStream()
   em ImunneVacinas.Pagamento.ValidarPagamento(Integracao integracao) na d:\web\localuser\vacinas\www\App_Code\Pagamentos.cs:linha 36
|EXTRA: 
--------------------------------------------------------------------------------

2023-03-29 16:37:41
|ORIGEM: ImunneVacinas
|EMPRESA: -1
|USER: -1
|ERRO: S&A Imunizações | parâmetros com valores inválidos
|TIPO: System.Exception
|TRACE:    em ImunneVacinas.TransacaoRealizada.ConsultarUnico(Int32 compra, Int32 transacao) na d:\web\localuser\vacinas\www\App_Code\Transacoes.cs:linha 309
   em ImunneVacinas.TransacaoRealizada.ExisteBD() na d:\web\localuser\vacinas\www\App_Code\Transacoes.cs:linha 332
   em imunne_pagamentos.LnkContinuar_Click(Object sender, EventArgs e) na d:\web\localuser\vacinas\www\pagamentos.aspx.cs:linha 254
|EXTRA: 
--------------------------------------------------------------------------------

2023-03-29 16:41:08
|ORIGEM: ImunneVacinas
|EMPRESA: -1
|USER: -1
|ERRO: O nome remoto não pôde ser resolvido: 'gateway.yapay.com.br'
|TIPO: System.Net.WebException
|TRACE:    em System.Net.HttpWebRequest.GetRequestStream(TransportContext& context)
   em System.Net.HttpWebRequest.GetRequestStream()
   em ImunneVacinas.Pagamento.ValidarPagamento(Integracao integracao) na d:\web\localuser\vacinas\www\App_Code\Pagamentos.cs:linha 36
|EXTRA: 
--------------------------------------------------------------------------------

2023-03-29 16:41:08
|ORIGEM: ImunneVacinas
|EMPRESA: -1
|USER: -1
|ERRO: S&A Imunizações | parâmetros com valores inválidos
|TIPO: System.Exception
|TRACE:    em ImunneVacinas.TransacaoRealizada.ConsultarUnico(Int32 compra, Int32 transacao) na d:\web\localuser\vacinas\www\App_Code\Transacoes.cs:linha 309
   em ImunneVacinas.TransacaoRealizada.ExisteBD() na d:\web\localuser\vacinas\www\App_Code\Transacoes.cs:linha 332
   em imunne_pagamentos.LnkContinuar_Click(Object sender, EventArgs e) na d:\web\localuser\vacinas\www\pagamentos.aspx.cs:linha 254
|EXTRA: 
--------------------------------------------------------------------------------

2023-03-29 16:41:39
|ORIGEM: ImunneVacinas
|EMPRESA: -1
|USER: -1
|ERRO: O nome remoto não pôde ser resolvido: 'gateway.yapay.com.br'
|TIPO: System.Net.WebException
|TRACE:    em System.Net.HttpWebRequest.GetRequestStream(TransportContext& context)
   em System.Net.HttpWebRequest.GetRequestStream()
   em ImunneVacinas.Pagamento.ValidarPagamento(Integracao integracao) na d:\web\localuser\vacinas\www\App_Code\Pagamentos.cs:linha 36
|EXTRA: 
--------------------------------------------------------------------------------

2023-03-29 16:41:39
|ORIGEM: ImunneVacinas
|EMPRESA: -1
|USER: -1
|ERRO: S&A Imunizações | parâmetros com valores inválidos
|TIPO: System.Exception
|TRACE:    em ImunneVacinas.TransacaoRealizada.ConsultarUnico(Int32 compra, Int32 transacao) na d:\web\localuser\vacinas\www\App_Code\Transacoes.cs:linha 309
   em ImunneVacinas.TransacaoRealizada.ExisteBD() na d:\web\localuser\vacinas\www\App_Code\Transacoes.cs:linha 332
   em imunne_pagamentos.LnkContinuar_Click(Object sender, EventArgs e) na d:\web\localuser\vacinas\www\pagamentos.aspx.cs:linha 254
|EXTRA: 
--------------------------------------------------------------------------------

2023-03-29 16:42:49
|ORIGEM: ImunneVacinas
|EMPRESA: -1
|USER: -1
|ERRO: O nome remoto não pôde ser resolvido: 'gateway.yapay.com.br'
|TIPO: System.Net.WebException
|TRACE:    em System.Net.HttpWebRequest.GetRequestStream(TransportContext& context)
   em System.Net.HttpWebRequest.GetRequestStream()
   em ImunneVacinas.Pagamento.ValidarPagamento(Integracao integracao) na d:\web\localuser\vacinas\www\App_Code\Pagamentos.cs:linha 36
|EXTRA: 
--------------------------------------------------------------------------------

2023-03-29 16:42:49
|ORIGEM: ImunneVacinas
|EMPRESA: -1
|USER: -1
|ERRO: S&A Imunizações | parâmetros com valores inválidos
|TIPO: System.Exception
|TRACE:    em ImunneVacinas.TransacaoRealizada.ConsultarUnico(Int32 compra, Int32 transacao) na d:\web\localuser\vacinas\www\App_Code\Transacoes.cs:linha 309
   em ImunneVacinas.TransacaoRealizada.ExisteBD() na d:\web\localuser\vacinas\www\App_Code\Transacoes.cs:linha 332
   em imunne_pagamentos.LnkContinuar_Click(Object sender, EventArgs e) na d:\web\localuser\vacinas\www\pagamentos.aspx.cs:linha 254
|EXTRA: 
--------------------------------------------------------------------------------

2023-03-29 17:10:56
|ORIGEM: ImunneVacinas
|EMPRESA: -1
|USER: -1
|ERRO: O nome remoto não pôde ser resolvido: 'gateway.yapay.com.br'
|TIPO: System.Net.WebException
|TRACE:    em System.Net.HttpWebRequest.GetRequestStream(TransportContext& context)
   em System.Net.HttpWebRequest.GetRequestStream()
   em ImunneVacinas.Pagamento.ValidarPagamento(Integracao integracao) na d:\web\localuser\vacinas\www\App_Code\Pagamentos.cs:linha 36
|EXTRA: 
--------------------------------------------------------------------------------

2023-03-29 17:10:56
|ORIGEM: ImunneVacinas
|EMPRESA: -1
|USER: -1
|ERRO: S&A Imunizações | parâmetros com valores inválidos
|TIPO: System.Exception
|TRACE:    em ImunneVacinas.TransacaoRealizada.ConsultarUnico(Int32 compra, Int32 transacao) na d:\web\localuser\vacinas\www\App_Code\Transacoes.cs:linha 309
   em ImunneVacinas.TransacaoRealizada.ExisteBD() na d:\web\localuser\vacinas\www\App_Code\Transacoes.cs:linha 332
   em imunne_pagamentos.LnkContinuar_Click(Object sender, EventArgs e) na d:\web\localuser\vacinas\www\pagamentos.aspx.cs:linha 254
|EXTRA: 
--------------------------------------------------------------------------------

2023-03-29 17:11:02
|ORIGEM: ImunneVacinas
|EMPRESA: -1
|USER: -1
|ERRO: O nome remoto não pôde ser resolvido: 'gateway.yapay.com.br'
|TIPO: System.Net.WebException
|TRACE:    em System.Net.HttpWebRequest.GetRequestStream(TransportContext& context)
   em System.Net.HttpWebRequest.GetRequestStream()
   em ImunneVacinas.Pagamento.ValidarPagamento(Integracao integracao) na d:\web\localuser\vacinas\www\App_Code\Pagamentos.cs:linha 36
|EXTRA: 
--------------------------------------------------------------------------------

2023-03-29 17:11:02
|ORIGEM: ImunneVacinas
|EMPRESA: -1
|USER: -1
|ERRO: S&A Imunizações | parâmetros com valores inválidos
|TIPO: System.Exception
|TRACE:    em ImunneVacinas.TransacaoRealizada.ConsultarUnico(Int32 compra, Int32 transacao) na d:\web\localuser\vacinas\www\App_Code\Transacoes.cs:linha 309
   em ImunneVacinas.TransacaoRealizada.ExisteBD() na d:\web\localuser\vacinas\www\App_Code\Transacoes.cs:linha 332
   em imunne_pagamentos.LnkContinuar_Click(Object sender, EventArgs e) na d:\web\localuser\vacinas\www\pagamentos.aspx.cs:linha 254
|EXTRA: 
--------------------------------------------------------------------------------

2023-03-29 17:20:25
|ORIGEM: ImunneVacinas
|EMPRESA: -1
|USER: -1
|ERRO: O nome remoto não pôde ser resolvido: 'gateway.yapay.com.br'
|TIPO: System.Net.WebException
|TRACE:    em System.Net.HttpWebRequest.GetRequestStream(TransportContext& context)
   em System.Net.HttpWebRequest.GetRequestStream()
   em ImunneVacinas.Pagamento.ValidarPagamento(Integracao integracao) na d:\web\localuser\vacinas\www\App_Code\Pagamentos.cs:linha 36
|EXTRA: 
--------------------------------------------------------------------------------

2023-03-29 17:20:25
|ORIGEM: ImunneVacinas
|EMPRESA: -1
|USER: -1
|ERRO: S&A Imunizações | parâmetros com valores inválidos
|TIPO: System.Exception
|TRACE:    em ImunneVacinas.TransacaoRealizada.ConsultarUnico(Int32 compra, Int32 transacao) na d:\web\localuser\vacinas\www\App_Code\Transacoes.cs:linha 309
   em ImunneVacinas.TransacaoRealizada.ExisteBD() na d:\web\localuser\vacinas\www\App_Code\Transacoes.cs:linha 332
   em imunne_pagamentos.LnkContinuar_Click(Object sender, EventArgs e) na d:\web\localuser\vacinas\www\pagamentos.aspx.cs:linha 254
|EXTRA: 
--------------------------------------------------------------------------------

