2024-02-14 13:14:59
|ORIGEM: ImunneVacinas
|EMPRESA: -1
|USER: -1
|ERRO: O servidor remoto retornou um erro: (422) Unprocessable Entity.
|TIPO: System.Net.WebException
|TRACE:    em System.Net.HttpWebRequest.GetResponse()
   em ImunneVacinas.Pagamento.ValidarPagamento(Integracao integracao, Int32 codigoCompra) na d:\web\localuser\vacinas\www\App_Code\Pagamentos.cs:linha 47
|EXTRA: 
--------------------------------------------------------------------------------

2024-02-14 13:15:06
|ORIGEM: ImunneVacinas
|EMPRESA: -1
|USER: -1
|ERRO: O servidor remoto retornou um erro: (422) Unprocessable Entity.
|TIPO: System.Net.WebException
|TRACE:    em System.Net.HttpWebRequest.GetResponse()
   em ImunneVacinas.Pagamento.ValidarPagamento(Integracao integracao, Int32 codigoCompra) na d:\web\localuser\vacinas\www\App_Code\Pagamentos.cs:linha 47
|EXTRA: 
--------------------------------------------------------------------------------

2024-02-14 13:15:06
|ORIGEM: ImunneVacinas
|EMPRESA: -1
|USER: -1
|ERRO: Ocorreu um erro ao executar o comando SQL.
|TIPO: System.InvalidOperationException
|TRACE:    em ImunneVacinas.TransacaoRealizada.Incluir() na d:\web\localuser\vacinas\www\App_Code\Transacoes.cs:linha 180
   em imunne_pagamentos.LnkContinuar_Click(Object sender, EventArgs e) na d:\web\localuser\vacinas\www\pagamentos.aspx.cs:linha 288
|EXTRA: 
--------------------------------------------------------------------------------

2024-02-14 13:29:16
|ORIGEM: ImunneVacinas
|EMPRESA: -1
|USER: -1
|ERRO: O servidor remoto retornou um erro: (422) Unprocessable Entity.
|TIPO: System.Net.WebException
|TRACE:    em System.Net.HttpWebRequest.GetResponse()
   em ImunneVacinas.Pagamento.ValidarPagamento(Integracao integracao, Int32 codigoCompra) na d:\web\localuser\vacinas\www\App_Code\Pagamentos.cs:linha 47
|EXTRA: 
--------------------------------------------------------------------------------

2024-02-14 13:30:08
|ORIGEM: ImunneVacinas
|EMPRESA: -1
|USER: -1
|ERRO: O servidor remoto retornou um erro: (422) Unprocessable Entity.
|TIPO: System.Net.WebException
|TRACE:    em System.Net.HttpWebRequest.GetResponse()
   em ImunneVacinas.Pagamento.ValidarPagamento(Integracao integracao, Int32 codigoCompra) na d:\web\localuser\vacinas\www\App_Code\Pagamentos.cs:linha 47
|EXTRA: 
--------------------------------------------------------------------------------

2024-02-14 13:30:08
|ORIGEM: ImunneVacinas
|EMPRESA: -1
|USER: -1
|ERRO: Ocorreu um erro ao executar o comando SQL.
|TIPO: System.InvalidOperationException
|TRACE:    em ImunneVacinas.TransacaoRealizada.Incluir() na d:\web\localuser\vacinas\www\App_Code\Transacoes.cs:linha 180
   em imunne_pagamentos.LnkContinuar_Click(Object sender, EventArgs e) na d:\web\localuser\vacinas\www\pagamentos.aspx.cs:linha 288
|EXTRA: 
--------------------------------------------------------------------------------

2024-02-14 13:31:21
|ORIGEM: ImunneVacinas
|EMPRESA: -1
|USER: -1
|ERRO: O servidor remoto retornou um erro: (422) Unprocessable Entity.
|TIPO: System.Net.WebException
|TRACE:    em System.Net.HttpWebRequest.GetResponse()
   em ImunneVacinas.Pagamento.ValidarPagamento(Integracao integracao, Int32 codigoCompra) na d:\web\localuser\vacinas\www\App_Code\Pagamentos.cs:linha 47
|EXTRA: 
--------------------------------------------------------------------------------

2024-02-14 13:31:28
|ORIGEM: ImunneVacinas
|EMPRESA: -1
|USER: -1
|ERRO: O servidor remoto retornou um erro: (422) Unprocessable Entity.
|TIPO: System.Net.WebException
|TRACE:    em System.Net.HttpWebRequest.GetResponse()
   em ImunneVacinas.Pagamento.ValidarPagamento(Integracao integracao, Int32 codigoCompra) na d:\web\localuser\vacinas\www\App_Code\Pagamentos.cs:linha 47
|EXTRA: 
--------------------------------------------------------------------------------

2024-02-14 13:31:28
|ORIGEM: ImunneVacinas
|EMPRESA: -1
|USER: -1
|ERRO: Ocorreu um erro ao executar o comando SQL.
|TIPO: System.InvalidOperationException
|TRACE:    em ImunneVacinas.TransacaoRealizada.Incluir() na d:\web\localuser\vacinas\www\App_Code\Transacoes.cs:linha 180
   em imunne_pagamentos.LnkContinuar_Click(Object sender, EventArgs e) na d:\web\localuser\vacinas\www\pagamentos.aspx.cs:linha 288
|EXTRA: 
--------------------------------------------------------------------------------

2024-02-14 13:31:43
|ORIGEM: ImunneVacinas
|EMPRESA: -1
|USER: -1
|ERRO: O servidor remoto retornou um erro: (422) Unprocessable Entity.
|TIPO: System.Net.WebException
|TRACE:    em System.Net.HttpWebRequest.GetResponse()
   em ImunneVacinas.Pagamento.ValidarPagamento(Integracao integracao, Int32 codigoCompra) na d:\web\localuser\vacinas\www\App_Code\Pagamentos.cs:linha 47
|EXTRA: 
--------------------------------------------------------------------------------

2024-02-14 13:31:43
|ORIGEM: ImunneVacinas
|EMPRESA: -1
|USER: -1
|ERRO: Ocorreu um erro ao executar o comando SQL.
|TIPO: System.InvalidOperationException
|TRACE:    em ImunneVacinas.TransacaoRealizada.Incluir() na d:\web\localuser\vacinas\www\App_Code\Transacoes.cs:linha 180
   em imunne_pagamentos.LnkContinuar_Click(Object sender, EventArgs e) na d:\web\localuser\vacinas\www\pagamentos.aspx.cs:linha 288
|EXTRA: 
--------------------------------------------------------------------------------

2024-02-14 13:31:49
|ORIGEM: ImunneVacinas
|EMPRESA: -1
|USER: -1
|ERRO: O servidor remoto retornou um erro: (422) Unprocessable Entity.
|TIPO: System.Net.WebException
|TRACE:    em System.Net.HttpWebRequest.GetResponse()
   em ImunneVacinas.Pagamento.ValidarPagamento(Integracao integracao, Int32 codigoCompra) na d:\web\localuser\vacinas\www\App_Code\Pagamentos.cs:linha 47
|EXTRA: 
--------------------------------------------------------------------------------

2024-02-14 13:31:49
|ORIGEM: ImunneVacinas
|EMPRESA: -1
|USER: -1
|ERRO: Ocorreu um erro ao executar o comando SQL.
|TIPO: System.InvalidOperationException
|TRACE:    em ImunneVacinas.TransacaoRealizada.Incluir() na d:\web\localuser\vacinas\www\App_Code\Transacoes.cs:linha 180
   em imunne_pagamentos.LnkContinuar_Click(Object sender, EventArgs e) na d:\web\localuser\vacinas\www\pagamentos.aspx.cs:linha 288
|EXTRA: 
--------------------------------------------------------------------------------

2024-02-14 15:17:57
|ORIGEM: ImunneVacinas
|EMPRESA: -1
|USER: -1
|ERRO: O servidor remoto retornou um erro: (422) Unprocessable Entity.
|TIPO: System.Net.WebException
|TRACE:    em System.Net.HttpWebRequest.GetResponse()
   em ImunneVacinas.Pagamento.ValidarPagamento(Integracao integracao, Int32 codigoCompra) na d:\web\localuser\vacinas\www\App_Code\Pagamentos.cs:linha 47
|EXTRA: 
--------------------------------------------------------------------------------

2024-02-14 15:18:22
|ORIGEM: ImunneVacinas
|EMPRESA: -1
|USER: -1
|ERRO: O servidor remoto retornou um erro: (422) Unprocessable Entity.
|TIPO: System.Net.WebException
|TRACE:    em System.Net.HttpWebRequest.GetResponse()
   em ImunneVacinas.Pagamento.ValidarPagamento(Integracao integracao, Int32 codigoCompra) na d:\web\localuser\vacinas\www\App_Code\Pagamentos.cs:linha 47
|EXTRA: 
--------------------------------------------------------------------------------

2024-02-14 15:18:22
|ORIGEM: ImunneVacinas
|EMPRESA: -1
|USER: -1
|ERRO: Ocorreu um erro ao executar o comando SQL.
|TIPO: System.InvalidOperationException
|TRACE:    em ImunneVacinas.TransacaoRealizada.Incluir() na d:\web\localuser\vacinas\www\App_Code\Transacoes.cs:linha 180
   em imunne_pagamentos.LnkContinuar_Click(Object sender, EventArgs e) na d:\web\localuser\vacinas\www\pagamentos.aspx.cs:linha 288
|EXTRA: 
--------------------------------------------------------------------------------

2024-02-14 15:21:56
|ORIGEM: ImunneVacinas
|EMPRESA: -1
|USER: -1
|ERRO: O servidor remoto retornou um erro: (422) Unprocessable Entity.
|TIPO: System.Net.WebException
|TRACE:    em System.Net.HttpWebRequest.GetResponse()
   em ImunneVacinas.Pagamento.ValidarPagamento(Integracao integracao, Int32 codigoCompra) na d:\web\localuser\vacinas\www\App_Code\Pagamentos.cs:linha 47
|EXTRA: 
--------------------------------------------------------------------------------

2024-02-14 15:21:56
|ORIGEM: ImunneVacinas
|EMPRESA: -1
|USER: -1
|ERRO: Ocorreu um erro ao executar o comando SQL.
|TIPO: System.InvalidOperationException
|TRACE:    em ImunneVacinas.TransacaoRealizada.Incluir() na d:\web\localuser\vacinas\www\App_Code\Transacoes.cs:linha 180
   em imunne_pagamentos.LnkContinuar_Click(Object sender, EventArgs e) na d:\web\localuser\vacinas\www\pagamentos.aspx.cs:linha 288
|EXTRA: 
--------------------------------------------------------------------------------

2024-02-14 15:26:12
|ORIGEM: ImunneVacinas
|EMPRESA: -1
|USER: -1
|ERRO: O servidor remoto retornou um erro: (422) Unprocessable Entity.
|TIPO: System.Net.WebException
|TRACE:    em System.Net.HttpWebRequest.GetResponse()
   em ImunneVacinas.Pagamento.ValidarPagamento(Integracao integracao, Int32 codigoCompra) na d:\web\localuser\vacinas\www\App_Code\Pagamentos.cs:linha 47
|EXTRA: 
--------------------------------------------------------------------------------

2024-02-14 15:26:45
|ORIGEM: ImunneVacinas
|EMPRESA: -1
|USER: -1
|ERRO: O servidor remoto retornou um erro: (422) Unprocessable Entity.
|TIPO: System.Net.WebException
|TRACE:    em System.Net.HttpWebRequest.GetResponse()
   em ImunneVacinas.Pagamento.ValidarPagamento(Integracao integracao, Int32 codigoCompra) na d:\web\localuser\vacinas\www\App_Code\Pagamentos.cs:linha 47
|EXTRA: 
--------------------------------------------------------------------------------

2024-02-14 15:26:45
|ORIGEM: ImunneVacinas
|EMPRESA: -1
|USER: -1
|ERRO: Ocorreu um erro ao executar o comando SQL.
|TIPO: System.InvalidOperationException
|TRACE:    em ImunneVacinas.TransacaoRealizada.Incluir() na d:\web\localuser\vacinas\www\App_Code\Transacoes.cs:linha 180
   em imunne_pagamentos.LnkContinuar_Click(Object sender, EventArgs e) na d:\web\localuser\vacinas\www\pagamentos.aspx.cs:linha 288
|EXTRA: 
--------------------------------------------------------------------------------

2024-02-14 15:27:59
|ORIGEM: ImunneVacinas
|EMPRESA: -1
|USER: -1
|ERRO: O servidor remoto retornou um erro: (422) Unprocessable Entity.
|TIPO: System.Net.WebException
|TRACE:    em System.Net.HttpWebRequest.GetResponse()
   em ImunneVacinas.Pagamento.ValidarPagamento(Integracao integracao, Int32 codigoCompra) na d:\web\localuser\vacinas\www\App_Code\Pagamentos.cs:linha 47
|EXTRA: 
--------------------------------------------------------------------------------

2024-02-14 15:28:49
|ORIGEM: ImunneVacinas
|EMPRESA: -1
|USER: -1
|ERRO: O servidor remoto retornou um erro: (422) Unprocessable Entity.
|TIPO: System.Net.WebException
|TRACE:    em System.Net.HttpWebRequest.GetResponse()
   em ImunneVacinas.Pagamento.ValidarPagamento(Integracao integracao, Int32 codigoCompra) na d:\web\localuser\vacinas\www\App_Code\Pagamentos.cs:linha 47
|EXTRA: 
--------------------------------------------------------------------------------

2024-02-14 15:28:49
|ORIGEM: ImunneVacinas
|EMPRESA: -1
|USER: -1
|ERRO: Ocorreu um erro ao executar o comando SQL.
|TIPO: System.InvalidOperationException
|TRACE:    em ImunneVacinas.TransacaoRealizada.Incluir() na d:\web\localuser\vacinas\www\App_Code\Transacoes.cs:linha 180
   em imunne_pagamentos.LnkContinuar_Click(Object sender, EventArgs e) na d:\web\localuser\vacinas\www\pagamentos.aspx.cs:linha 288
|EXTRA: 
--------------------------------------------------------------------------------

2024-02-14 15:57:28
|ORIGEM: ImunneVacinas
|EMPRESA: -1
|USER: -1
|ERRO: O servidor remoto retornou um erro: (422) Unprocessable Entity.
|TIPO: System.Net.WebException
|TRACE:    em System.Net.HttpWebRequest.GetResponse()
   em ImunneVacinas.Pagamento.ValidarPagamento(Integracao integracao, Int32 codigoCompra) na d:\web\localuser\vacinas\www\App_Code\Pagamentos.cs:linha 47
|EXTRA: 
--------------------------------------------------------------------------------

2024-02-14 15:57:28
|ORIGEM: ImunneVacinas
|EMPRESA: -1
|USER: -1
|ERRO: Ocorreu um erro ao executar o comando SQL.
|TIPO: System.InvalidOperationException
|TRACE:    em ImunneVacinas.TransacaoRealizada.Incluir() na d:\web\localuser\vacinas\www\App_Code\Transacoes.cs:linha 180
   em imunne_pagamentos.LnkContinuar_Click(Object sender, EventArgs e) na d:\web\localuser\vacinas\www\pagamentos.aspx.cs:linha 288
|EXTRA: 
--------------------------------------------------------------------------------

