2024-02-08 07:57:04
|ORIGEM: ImunneVacinas
|EMPRESA: -1
|USER: -1
|ERRO: O servidor remoto retornou um erro: (422) Unprocessable Entity.
|TIPO: System.Net.WebException
|TRACE:    em System.Net.HttpWebRequest.GetResponse()
   em ImunneVacinas.Pagamento.ValidarPagamento(Integracao integracao, Int32 codigoCompra) na d:\web\localuser\vacinas\www\App_Code\Pagamentos.cs:linha 47
|EXTRA: 
--------------------------------------------------------------------------------

2024-02-08 09:30:58
|ORIGEM: ImunneVacinas
|EMPRESA: -1
|USER: -1
|ERRO: O servidor remoto retornou um erro: (422) Unprocessable Entity.
|TIPO: System.Net.WebException
|TRACE:    em System.Net.HttpWebRequest.GetResponse()
   em ImunneVacinas.Pagamento.ValidarPagamento(Integracao integracao, Int32 codigoCompra) na d:\web\localuser\vacinas\www\App_Code\Pagamentos.cs:linha 47
|EXTRA: 
--------------------------------------------------------------------------------

2024-02-08 09:31:27
|ORIGEM: ImunneVacinas
|EMPRESA: -1
|USER: -1
|ERRO: O servidor remoto retornou um erro: (422) Unprocessable Entity.
|TIPO: System.Net.WebException
|TRACE:    em System.Net.HttpWebRequest.GetResponse()
   em ImunneVacinas.Pagamento.ValidarPagamento(Integracao integracao, Int32 codigoCompra) na d:\web\localuser\vacinas\www\App_Code\Pagamentos.cs:linha 47
|EXTRA: 
--------------------------------------------------------------------------------

2024-02-08 09:31:27
|ORIGEM: ImunneVacinas
|EMPRESA: -1
|USER: -1
|ERRO: Ocorreu um erro ao executar o comando SQL.
|TIPO: System.InvalidOperationException
|TRACE:    em ImunneVacinas.TransacaoRealizada.Incluir() na d:\web\localuser\vacinas\www\App_Code\Transacoes.cs:linha 180
   em imunne_pagamentos.LnkContinuar_Click(Object sender, EventArgs e) na d:\web\localuser\vacinas\www\pagamentos.aspx.cs:linha 288
|EXTRA: 
--------------------------------------------------------------------------------

2024-02-08 09:33:49
|ORIGEM: ImunneVacinas
|EMPRESA: -1
|USER: -1
|ERRO: O servidor remoto retornou um erro: (422) Unprocessable Entity.
|TIPO: System.Net.WebException
|TRACE:    em System.Net.HttpWebRequest.GetResponse()
   em ImunneVacinas.Pagamento.ValidarPagamento(Integracao integracao, Int32 codigoCompra) na d:\web\localuser\vacinas\www\App_Code\Pagamentos.cs:linha 47
|EXTRA: 
--------------------------------------------------------------------------------

2024-02-08 09:33:49
|ORIGEM: ImunneVacinas
|EMPRESA: -1
|USER: -1
|ERRO: Ocorreu um erro ao executar o comando SQL.
|TIPO: System.InvalidOperationException
|TRACE:    em ImunneVacinas.TransacaoRealizada.Incluir() na d:\web\localuser\vacinas\www\App_Code\Transacoes.cs:linha 180
   em imunne_pagamentos.LnkContinuar_Click(Object sender, EventArgs e) na d:\web\localuser\vacinas\www\pagamentos.aspx.cs:linha 288
|EXTRA: 
--------------------------------------------------------------------------------

2024-02-08 09:35:55
|ORIGEM: ImunneVacinas
|EMPRESA: -1
|USER: -1
|ERRO: O servidor remoto retornou um erro: (422) Unprocessable Entity.
|TIPO: System.Net.WebException
|TRACE:    em System.Net.HttpWebRequest.GetResponse()
   em ImunneVacinas.Pagamento.ValidarPagamento(Integracao integracao, Int32 codigoCompra) na d:\web\localuser\vacinas\www\App_Code\Pagamentos.cs:linha 47
|EXTRA: 
--------------------------------------------------------------------------------

2024-02-08 09:35:55
|ORIGEM: ImunneVacinas
|EMPRESA: -1
|USER: -1
|ERRO: Ocorreu um erro ao executar o comando SQL.
|TIPO: System.InvalidOperationException
|TRACE:    em ImunneVacinas.TransacaoRealizada.Incluir() na d:\web\localuser\vacinas\www\App_Code\Transacoes.cs:linha 180
   em imunne_pagamentos.LnkContinuar_Click(Object sender, EventArgs e) na d:\web\localuser\vacinas\www\pagamentos.aspx.cs:linha 288
|EXTRA: 
--------------------------------------------------------------------------------

2024-02-08 09:39:39
|ORIGEM: ImunneVacinas
|EMPRESA: -1
|USER: -1
|ERRO: O servidor remoto retornou um erro: (422) Unprocessable Entity.
|TIPO: System.Net.WebException
|TRACE:    em System.Net.HttpWebRequest.GetResponse()
   em ImunneVacinas.Pagamento.ValidarPagamento(Integracao integracao, Int32 codigoCompra) na d:\web\localuser\vacinas\www\App_Code\Pagamentos.cs:linha 47
|EXTRA: 
--------------------------------------------------------------------------------

2024-02-08 09:39:59
|ORIGEM: ImunneVacinas
|EMPRESA: -1
|USER: -1
|ERRO: O servidor remoto retornou um erro: (422) Unprocessable Entity.
|TIPO: System.Net.WebException
|TRACE:    em System.Net.HttpWebRequest.GetResponse()
   em ImunneVacinas.Pagamento.ValidarPagamento(Integracao integracao, Int32 codigoCompra) na d:\web\localuser\vacinas\www\App_Code\Pagamentos.cs:linha 47
|EXTRA: 
--------------------------------------------------------------------------------

2024-02-08 09:39:59
|ORIGEM: ImunneVacinas
|EMPRESA: -1
|USER: -1
|ERRO: Ocorreu um erro ao executar o comando SQL.
|TIPO: System.InvalidOperationException
|TRACE:    em ImunneVacinas.TransacaoRealizada.Incluir() na d:\web\localuser\vacinas\www\App_Code\Transacoes.cs:linha 180
   em imunne_pagamentos.LnkContinuar_Click(Object sender, EventArgs e) na d:\web\localuser\vacinas\www\pagamentos.aspx.cs:linha 288
|EXTRA: 
--------------------------------------------------------------------------------

2024-02-08 09:53:26
|ORIGEM: ImunneVacinas
|EMPRESA: -1
|USER: -1
|ERRO: O servidor remoto retornou um erro: (422) Unprocessable Entity.
|TIPO: System.Net.WebException
|TRACE:    em System.Net.HttpWebRequest.GetResponse()
   em ImunneVacinas.Pagamento.ValidarPagamento(Integracao integracao, Int32 codigoCompra) na d:\web\localuser\vacinas\www\App_Code\Pagamentos.cs:linha 47
|EXTRA: 
--------------------------------------------------------------------------------

2024-02-08 09:54:48
|ORIGEM: ImunneVacinas
|EMPRESA: -1
|USER: -1
|ERRO: O servidor remoto retornou um erro: (422) Unprocessable Entity.
|TIPO: System.Net.WebException
|TRACE:    em System.Net.HttpWebRequest.GetResponse()
   em ImunneVacinas.Pagamento.ValidarPagamento(Integracao integracao, Int32 codigoCompra) na d:\web\localuser\vacinas\www\App_Code\Pagamentos.cs:linha 47
|EXTRA: 
--------------------------------------------------------------------------------

2024-02-08 09:54:48
|ORIGEM: ImunneVacinas
|EMPRESA: -1
|USER: -1
|ERRO: Ocorreu um erro ao executar o comando SQL.
|TIPO: System.InvalidOperationException
|TRACE:    em ImunneVacinas.TransacaoRealizada.Incluir() na d:\web\localuser\vacinas\www\App_Code\Transacoes.cs:linha 180
   em imunne_pagamentos.LnkContinuar_Click(Object sender, EventArgs e) na d:\web\localuser\vacinas\www\pagamentos.aspx.cs:linha 288
|EXTRA: 
--------------------------------------------------------------------------------

2024-02-08 13:48:21
|ORIGEM: ImunneVacinas
|EMPRESA: -1
|USER: -1
|ERRO: O servidor remoto retornou um erro: (422) Unprocessable Entity.
|TIPO: System.Net.WebException
|TRACE:    em System.Net.HttpWebRequest.GetResponse()
   em ImunneVacinas.Pagamento.ValidarPagamento(Integracao integracao, Int32 codigoCompra) na d:\web\localuser\vacinas\www\App_Code\Pagamentos.cs:linha 47
|EXTRA: 
--------------------------------------------------------------------------------

2024-02-08 13:48:42
|ORIGEM: ImunneVacinas
|EMPRESA: -1
|USER: -1
|ERRO: O servidor remoto retornou um erro: (422) Unprocessable Entity.
|TIPO: System.Net.WebException
|TRACE:    em System.Net.HttpWebRequest.GetResponse()
   em ImunneVacinas.Pagamento.ValidarPagamento(Integracao integracao, Int32 codigoCompra) na d:\web\localuser\vacinas\www\App_Code\Pagamentos.cs:linha 47
|EXTRA: 
--------------------------------------------------------------------------------

2024-02-08 13:48:42
|ORIGEM: ImunneVacinas
|EMPRESA: -1
|USER: -1
|ERRO: Ocorreu um erro ao executar o comando SQL.
|TIPO: System.InvalidOperationException
|TRACE:    em ImunneVacinas.TransacaoRealizada.Incluir() na d:\web\localuser\vacinas\www\App_Code\Transacoes.cs:linha 180
   em imunne_pagamentos.LnkContinuar_Click(Object sender, EventArgs e) na d:\web\localuser\vacinas\www\pagamentos.aspx.cs:linha 288
|EXTRA: 
--------------------------------------------------------------------------------

2024-02-08 15:11:31
|ORIGEM: ImunneVacinas
|EMPRESA: -1
|USER: -1
|ERRO: O servidor remoto retornou um erro: (422) Unprocessable Entity.
|TIPO: System.Net.WebException
|TRACE:    em System.Net.HttpWebRequest.GetResponse()
   em ImunneVacinas.Pagamento.ValidarPagamento(Integracao integracao, Int32 codigoCompra) na d:\web\localuser\vacinas\www\App_Code\Pagamentos.cs:linha 47
|EXTRA: 
--------------------------------------------------------------------------------

2024-02-08 15:12:22
|ORIGEM: ImunneVacinas
|EMPRESA: -1
|USER: -1
|ERRO: O servidor remoto retornou um erro: (422) Unprocessable Entity.
|TIPO: System.Net.WebException
|TRACE:    em System.Net.HttpWebRequest.GetResponse()
   em ImunneVacinas.Pagamento.ValidarPagamento(Integracao integracao, Int32 codigoCompra) na d:\web\localuser\vacinas\www\App_Code\Pagamentos.cs:linha 47
|EXTRA: 
--------------------------------------------------------------------------------

2024-02-08 15:12:22
|ORIGEM: ImunneVacinas
|EMPRESA: -1
|USER: -1
|ERRO: Ocorreu um erro ao executar o comando SQL.
|TIPO: System.InvalidOperationException
|TRACE:    em ImunneVacinas.TransacaoRealizada.Incluir() na d:\web\localuser\vacinas\www\App_Code\Transacoes.cs:linha 180
   em imunne_pagamentos.LnkContinuar_Click(Object sender, EventArgs e) na d:\web\localuser\vacinas\www\pagamentos.aspx.cs:linha 288
|EXTRA: 
--------------------------------------------------------------------------------

2024-02-08 15:12:35
|ORIGEM: ImunneVacinas
|EMPRESA: -1
|USER: -1
|ERRO: O servidor remoto retornou um erro: (422) Unprocessable Entity.
|TIPO: System.Net.WebException
|TRACE:    em System.Net.HttpWebRequest.GetResponse()
   em ImunneVacinas.Pagamento.ValidarPagamento(Integracao integracao, Int32 codigoCompra) na d:\web\localuser\vacinas\www\App_Code\Pagamentos.cs:linha 47
|EXTRA: 
--------------------------------------------------------------------------------

2024-02-08 15:12:35
|ORIGEM: ImunneVacinas
|EMPRESA: -1
|USER: -1
|ERRO: Ocorreu um erro ao executar o comando SQL.
|TIPO: System.InvalidOperationException
|TRACE:    em ImunneVacinas.TransacaoRealizada.Incluir() na d:\web\localuser\vacinas\www\App_Code\Transacoes.cs:linha 180
   em imunne_pagamentos.LnkContinuar_Click(Object sender, EventArgs e) na d:\web\localuser\vacinas\www\pagamentos.aspx.cs:linha 288
|EXTRA: 
--------------------------------------------------------------------------------

2024-02-08 15:12:42
|ORIGEM: ImunneVacinas
|EMPRESA: -1
|USER: -1
|ERRO: O servidor remoto retornou um erro: (422) Unprocessable Entity.
|TIPO: System.Net.WebException
|TRACE:    em System.Net.HttpWebRequest.GetResponse()
   em ImunneVacinas.Pagamento.ValidarPagamento(Integracao integracao, Int32 codigoCompra) na d:\web\localuser\vacinas\www\App_Code\Pagamentos.cs:linha 47
|EXTRA: 
--------------------------------------------------------------------------------

2024-02-08 15:12:42
|ORIGEM: ImunneVacinas
|EMPRESA: -1
|USER: -1
|ERRO: Ocorreu um erro ao executar o comando SQL.
|TIPO: System.InvalidOperationException
|TRACE:    em ImunneVacinas.TransacaoRealizada.Incluir() na d:\web\localuser\vacinas\www\App_Code\Transacoes.cs:linha 180
   em imunne_pagamentos.LnkContinuar_Click(Object sender, EventArgs e) na d:\web\localuser\vacinas\www\pagamentos.aspx.cs:linha 288
|EXTRA: 
--------------------------------------------------------------------------------

2024-02-08 15:12:47
|ORIGEM: ImunneVacinas
|EMPRESA: -1
|USER: -1
|ERRO: O servidor remoto retornou um erro: (422) Unprocessable Entity.
|TIPO: System.Net.WebException
|TRACE:    em System.Net.HttpWebRequest.GetResponse()
   em ImunneVacinas.Pagamento.ValidarPagamento(Integracao integracao, Int32 codigoCompra) na d:\web\localuser\vacinas\www\App_Code\Pagamentos.cs:linha 47
|EXTRA: 
--------------------------------------------------------------------------------

2024-02-08 15:12:47
|ORIGEM: ImunneVacinas
|EMPRESA: -1
|USER: -1
|ERRO: Ocorreu um erro ao executar o comando SQL.
|TIPO: System.InvalidOperationException
|TRACE:    em ImunneVacinas.TransacaoRealizada.Incluir() na d:\web\localuser\vacinas\www\App_Code\Transacoes.cs:linha 180
   em imunne_pagamentos.LnkContinuar_Click(Object sender, EventArgs e) na d:\web\localuser\vacinas\www\pagamentos.aspx.cs:linha 288
|EXTRA: 
--------------------------------------------------------------------------------

2024-02-08 15:13:11
|ORIGEM: ImunneVacinas
|EMPRESA: -1
|USER: -1
|ERRO: O servidor remoto retornou um erro: (422) Unprocessable Entity.
|TIPO: System.Net.WebException
|TRACE:    em System.Net.HttpWebRequest.GetResponse()
   em ImunneVacinas.Pagamento.ValidarPagamento(Integracao integracao, Int32 codigoCompra) na d:\web\localuser\vacinas\www\App_Code\Pagamentos.cs:linha 47
|EXTRA: 
--------------------------------------------------------------------------------

2024-02-08 15:13:11
|ORIGEM: ImunneVacinas
|EMPRESA: -1
|USER: -1
|ERRO: Ocorreu um erro ao executar o comando SQL.
|TIPO: System.InvalidOperationException
|TRACE:    em ImunneVacinas.TransacaoRealizada.Incluir() na d:\web\localuser\vacinas\www\App_Code\Transacoes.cs:linha 180
   em imunne_pagamentos.LnkContinuar_Click(Object sender, EventArgs e) na d:\web\localuser\vacinas\www\pagamentos.aspx.cs:linha 288
|EXTRA: 
--------------------------------------------------------------------------------

2024-02-08 15:13:22
|ORIGEM: ImunneVacinas
|EMPRESA: -1
|USER: -1
|ERRO: O servidor remoto retornou um erro: (422) Unprocessable Entity.
|TIPO: System.Net.WebException
|TRACE:    em System.Net.HttpWebRequest.GetResponse()
   em ImunneVacinas.Pagamento.ValidarPagamento(Integracao integracao, Int32 codigoCompra) na d:\web\localuser\vacinas\www\App_Code\Pagamentos.cs:linha 47
|EXTRA: 
--------------------------------------------------------------------------------

2024-02-08 15:13:22
|ORIGEM: ImunneVacinas
|EMPRESA: -1
|USER: -1
|ERRO: Ocorreu um erro ao executar o comando SQL.
|TIPO: System.InvalidOperationException
|TRACE:    em ImunneVacinas.TransacaoRealizada.Incluir() na d:\web\localuser\vacinas\www\App_Code\Transacoes.cs:linha 180
   em imunne_pagamentos.LnkContinuar_Click(Object sender, EventArgs e) na d:\web\localuser\vacinas\www\pagamentos.aspx.cs:linha 288
|EXTRA: 
--------------------------------------------------------------------------------

2024-02-08 15:13:41
|ORIGEM: ImunneVacinas
|EMPRESA: -1
|USER: -1
|ERRO: O servidor remoto retornou um erro: (422) Unprocessable Entity.
|TIPO: System.Net.WebException
|TRACE:    em System.Net.HttpWebRequest.GetResponse()
   em ImunneVacinas.Pagamento.ValidarPagamento(Integracao integracao, Int32 codigoCompra) na d:\web\localuser\vacinas\www\App_Code\Pagamentos.cs:linha 47
|EXTRA: 
--------------------------------------------------------------------------------

2024-02-08 15:13:41
|ORIGEM: ImunneVacinas
|EMPRESA: -1
|USER: -1
|ERRO: Ocorreu um erro ao executar o comando SQL.
|TIPO: System.InvalidOperationException
|TRACE:    em ImunneVacinas.TransacaoRealizada.Incluir() na d:\web\localuser\vacinas\www\App_Code\Transacoes.cs:linha 180
   em imunne_pagamentos.LnkContinuar_Click(Object sender, EventArgs e) na d:\web\localuser\vacinas\www\pagamentos.aspx.cs:linha 288
|EXTRA: 
--------------------------------------------------------------------------------

2024-02-08 15:16:20
|ORIGEM: ImunneVacinas
|EMPRESA: -1
|USER: -1
|ERRO: O servidor remoto retornou um erro: (422) Unprocessable Entity.
|TIPO: System.Net.WebException
|TRACE:    em System.Net.HttpWebRequest.GetResponse()
   em ImunneVacinas.Pagamento.ValidarPagamento(Integracao integracao, Int32 codigoCompra) na d:\web\localuser\vacinas\www\App_Code\Pagamentos.cs:linha 47
|EXTRA: 
--------------------------------------------------------------------------------

2024-02-08 15:17:00
|ORIGEM: ImunneVacinas
|EMPRESA: -1
|USER: -1
|ERRO: O servidor remoto retornou um erro: (422) Unprocessable Entity.
|TIPO: System.Net.WebException
|TRACE:    em System.Net.HttpWebRequest.GetResponse()
   em ImunneVacinas.Pagamento.ValidarPagamento(Integracao integracao, Int32 codigoCompra) na d:\web\localuser\vacinas\www\App_Code\Pagamentos.cs:linha 47
|EXTRA: 
--------------------------------------------------------------------------------

2024-02-08 15:17:00
|ORIGEM: ImunneVacinas
|EMPRESA: -1
|USER: -1
|ERRO: Ocorreu um erro ao executar o comando SQL.
|TIPO: System.InvalidOperationException
|TRACE:    em ImunneVacinas.TransacaoRealizada.Incluir() na d:\web\localuser\vacinas\www\App_Code\Transacoes.cs:linha 180
   em imunne_pagamentos.LnkContinuar_Click(Object sender, EventArgs e) na d:\web\localuser\vacinas\www\pagamentos.aspx.cs:linha 288
|EXTRA: 
--------------------------------------------------------------------------------

2024-02-08 16:00:17
|ORIGEM: ImunneVacinas
|EMPRESA: -1
|USER: -1
|ERRO: O servidor remoto retornou um erro: (422) Unprocessable Entity.
|TIPO: System.Net.WebException
|TRACE:    em System.Net.HttpWebRequest.GetResponse()
   em ImunneVacinas.Pagamento.ValidarPagamento(Integracao integracao, Int32 codigoCompra) na d:\web\localuser\vacinas\www\App_Code\Pagamentos.cs:linha 47
|EXTRA: 
--------------------------------------------------------------------------------

2024-02-08 16:00:47
|ORIGEM: ImunneVacinas
|EMPRESA: -1
|USER: -1
|ERRO: O servidor remoto retornou um erro: (422) Unprocessable Entity.
|TIPO: System.Net.WebException
|TRACE:    em System.Net.HttpWebRequest.GetResponse()
   em ImunneVacinas.Pagamento.ValidarPagamento(Integracao integracao, Int32 codigoCompra) na d:\web\localuser\vacinas\www\App_Code\Pagamentos.cs:linha 47
|EXTRA: 
--------------------------------------------------------------------------------

2024-02-08 16:00:47
|ORIGEM: ImunneVacinas
|EMPRESA: -1
|USER: -1
|ERRO: Ocorreu um erro ao executar o comando SQL.
|TIPO: System.InvalidOperationException
|TRACE:    em ImunneVacinas.TransacaoRealizada.Incluir() na d:\web\localuser\vacinas\www\App_Code\Transacoes.cs:linha 180
   em imunne_pagamentos.LnkContinuar_Click(Object sender, EventArgs e) na d:\web\localuser\vacinas\www\pagamentos.aspx.cs:linha 288
|EXTRA: 
--------------------------------------------------------------------------------

2024-02-08 16:03:48
|ORIGEM: ImunneVacinas
|EMPRESA: -1
|USER: -1
|ERRO: O servidor remoto retornou um erro: (422) Unprocessable Entity.
|TIPO: System.Net.WebException
|TRACE:    em System.Net.HttpWebRequest.GetResponse()
   em ImunneVacinas.Pagamento.ValidarPagamento(Integracao integracao, Int32 codigoCompra) na d:\web\localuser\vacinas\www\App_Code\Pagamentos.cs:linha 47
|EXTRA: 
--------------------------------------------------------------------------------

2024-02-08 16:03:48
|ORIGEM: ImunneVacinas
|EMPRESA: -1
|USER: -1
|ERRO: Ocorreu um erro ao executar o comando SQL.
|TIPO: System.InvalidOperationException
|TRACE:    em ImunneVacinas.TransacaoRealizada.Incluir() na d:\web\localuser\vacinas\www\App_Code\Transacoes.cs:linha 180
   em imunne_pagamentos.LnkContinuar_Click(Object sender, EventArgs e) na d:\web\localuser\vacinas\www\pagamentos.aspx.cs:linha 288
|EXTRA: 
--------------------------------------------------------------------------------

2024-02-08 16:04:55
|ORIGEM: ImunneVacinas
|EMPRESA: -1
|USER: -1
|ERRO: O servidor remoto retornou um erro: (422) Unprocessable Entity.
|TIPO: System.Net.WebException
|TRACE:    em System.Net.HttpWebRequest.GetResponse()
   em ImunneVacinas.Pagamento.ValidarPagamento(Integracao integracao, Int32 codigoCompra) na d:\web\localuser\vacinas\www\App_Code\Pagamentos.cs:linha 47
|EXTRA: 
--------------------------------------------------------------------------------

2024-02-08 16:04:55
|ORIGEM: ImunneVacinas
|EMPRESA: -1
|USER: -1
|ERRO: Ocorreu um erro ao executar o comando SQL.
|TIPO: System.InvalidOperationException
|TRACE:    em ImunneVacinas.TransacaoRealizada.Incluir() na d:\web\localuser\vacinas\www\App_Code\Transacoes.cs:linha 180
   em imunne_pagamentos.LnkContinuar_Click(Object sender, EventArgs e) na d:\web\localuser\vacinas\www\pagamentos.aspx.cs:linha 288
|EXTRA: 
--------------------------------------------------------------------------------

2024-02-08 16:05:17
|ORIGEM: ImunneVacinas
|EMPRESA: -1
|USER: -1
|ERRO: O servidor remoto retornou um erro: (422) Unprocessable Entity.
|TIPO: System.Net.WebException
|TRACE:    em System.Net.HttpWebRequest.GetResponse()
   em ImunneVacinas.Pagamento.ValidarPagamento(Integracao integracao, Int32 codigoCompra) na d:\web\localuser\vacinas\www\App_Code\Pagamentos.cs:linha 47
|EXTRA: 
--------------------------------------------------------------------------------

2024-02-08 16:05:17
|ORIGEM: ImunneVacinas
|EMPRESA: -1
|USER: -1
|ERRO: Ocorreu um erro ao executar o comando SQL.
|TIPO: System.InvalidOperationException
|TRACE:    em ImunneVacinas.TransacaoRealizada.Incluir() na d:\web\localuser\vacinas\www\App_Code\Transacoes.cs:linha 180
   em imunne_pagamentos.LnkContinuar_Click(Object sender, EventArgs e) na d:\web\localuser\vacinas\www\pagamentos.aspx.cs:linha 288
|EXTRA: 
--------------------------------------------------------------------------------

