2024-02-07 06:07:04
|ORIGEM: ImunneVacinas
|EMPRESA: -1
|USER: -1
|ERRO: O servidor remoto retornou um erro: (422) Unprocessable Entity.
|TIPO: System.Net.WebException
|TRACE:    em System.Net.HttpWebRequest.GetResponse()
   em ImunneVacinas.Pagamento.ValidarPagamento(Integracao integracao, Int32 codigoCompra) na d:\web\localuser\vacinas\www\App_Code\Pagamentos.cs:linha 47
|EXTRA: 
--------------------------------------------------------------------------------

2024-02-07 06:08:19
|ORIGEM: ImunneVacinas
|EMPRESA: -1
|USER: -1
|ERRO: O servidor remoto retornou um erro: (422) Unprocessable Entity.
|TIPO: System.Net.WebException
|TRACE:    em System.Net.HttpWebRequest.GetResponse()
   em ImunneVacinas.Pagamento.ValidarPagamento(Integracao integracao, Int32 codigoCompra) na d:\web\localuser\vacinas\www\App_Code\Pagamentos.cs:linha 47
|EXTRA: 
--------------------------------------------------------------------------------

2024-02-07 06:08:19
|ORIGEM: ImunneVacinas
|EMPRESA: -1
|USER: -1
|ERRO: Ocorreu um erro ao executar o comando SQL.
|TIPO: System.InvalidOperationException
|TRACE:    em ImunneVacinas.TransacaoRealizada.Incluir() na d:\web\localuser\vacinas\www\App_Code\Transacoes.cs:linha 180
   em imunne_pagamentos.LnkContinuar_Click(Object sender, EventArgs e) na d:\web\localuser\vacinas\www\pagamentos.aspx.cs:linha 288
|EXTRA: 
--------------------------------------------------------------------------------

2024-02-07 10:58:59
|ORIGEM: ImunneVacinas
|EMPRESA: -1
|USER: -1
|ERRO: O servidor remoto retornou um erro: (422) Unprocessable Entity.
|TIPO: System.Net.WebException
|TRACE:    em System.Net.HttpWebRequest.GetResponse()
   em ImunneVacinas.Pagamento.ValidarPagamento(Integracao integracao, Int32 codigoCompra) na d:\web\localuser\vacinas\www\App_Code\Pagamentos.cs:linha 47
|EXTRA: 
--------------------------------------------------------------------------------

2024-02-07 11:03:41
|ORIGEM: ImunneVacinas
|EMPRESA: -1
|USER: -1
|ERRO: O servidor remoto retornou um erro: (422) Unprocessable Entity.
|TIPO: System.Net.WebException
|TRACE:    em System.Net.HttpWebRequest.GetResponse()
   em ImunneVacinas.Pagamento.ValidarPagamento(Integracao integracao, Int32 codigoCompra) na d:\web\localuser\vacinas\www\App_Code\Pagamentos.cs:linha 47
|EXTRA: 
--------------------------------------------------------------------------------

2024-02-07 11:03:41
|ORIGEM: ImunneVacinas
|EMPRESA: -1
|USER: -1
|ERRO: Ocorreu um erro ao executar o comando SQL.
|TIPO: System.InvalidOperationException
|TRACE:    em ImunneVacinas.TransacaoRealizada.Incluir() na d:\web\localuser\vacinas\www\App_Code\Transacoes.cs:linha 180
   em imunne_pagamentos.LnkContinuar_Click(Object sender, EventArgs e) na d:\web\localuser\vacinas\www\pagamentos.aspx.cs:linha 288
|EXTRA: 
--------------------------------------------------------------------------------

2024-02-07 11:08:18
|ORIGEM: ImunneVacinas
|EMPRESA: -1
|USER: -1
|ERRO: O servidor remoto retornou um erro: (422) Unprocessable Entity.
|TIPO: System.Net.WebException
|TRACE:    em System.Net.HttpWebRequest.GetResponse()
   em ImunneVacinas.Pagamento.ValidarPagamento(Integracao integracao, Int32 codigoCompra) na d:\web\localuser\vacinas\www\App_Code\Pagamentos.cs:linha 47
|EXTRA: 
--------------------------------------------------------------------------------

2024-02-07 11:08:18
|ORIGEM: ImunneVacinas
|EMPRESA: -1
|USER: -1
|ERRO: Ocorreu um erro ao executar o comando SQL.
|TIPO: System.InvalidOperationException
|TRACE:    em ImunneVacinas.TransacaoRealizada.Incluir() na d:\web\localuser\vacinas\www\App_Code\Transacoes.cs:linha 180
   em imunne_pagamentos.LnkContinuar_Click(Object sender, EventArgs e) na d:\web\localuser\vacinas\www\pagamentos.aspx.cs:linha 288
|EXTRA: 
--------------------------------------------------------------------------------

2024-02-07 11:16:23
|ORIGEM: ImunneVacinas
|EMPRESA: -1
|USER: -1
|ERRO: O servidor remoto retornou um erro: (422) Unprocessable Entity.
|TIPO: System.Net.WebException
|TRACE:    em System.Net.HttpWebRequest.GetResponse()
   em ImunneVacinas.Pagamento.ValidarPagamento(Integracao integracao, Int32 codigoCompra) na d:\web\localuser\vacinas\www\App_Code\Pagamentos.cs:linha 47
|EXTRA: 
--------------------------------------------------------------------------------

2024-02-07 11:16:23
|ORIGEM: ImunneVacinas
|EMPRESA: -1
|USER: -1
|ERRO: Ocorreu um erro ao executar o comando SQL.
|TIPO: System.InvalidOperationException
|TRACE:    em ImunneVacinas.TransacaoRealizada.Incluir() na d:\web\localuser\vacinas\www\App_Code\Transacoes.cs:linha 180
   em imunne_pagamentos.LnkContinuar_Click(Object sender, EventArgs e) na d:\web\localuser\vacinas\www\pagamentos.aspx.cs:linha 288
|EXTRA: 
--------------------------------------------------------------------------------

2024-02-07 11:17:18
|ORIGEM: ImunneVacinas
|EMPRESA: -1
|USER: -1
|ERRO: O servidor remoto retornou um erro: (422) Unprocessable Entity.
|TIPO: System.Net.WebException
|TRACE:    em System.Net.HttpWebRequest.GetResponse()
   em ImunneVacinas.Pagamento.ValidarPagamento(Integracao integracao, Int32 codigoCompra) na d:\web\localuser\vacinas\www\App_Code\Pagamentos.cs:linha 47
|EXTRA: 
--------------------------------------------------------------------------------

2024-02-07 11:17:18
|ORIGEM: ImunneVacinas
|EMPRESA: -1
|USER: -1
|ERRO: Ocorreu um erro ao executar o comando SQL.
|TIPO: System.InvalidOperationException
|TRACE:    em ImunneVacinas.TransacaoRealizada.Incluir() na d:\web\localuser\vacinas\www\App_Code\Transacoes.cs:linha 180
   em imunne_pagamentos.LnkContinuar_Click(Object sender, EventArgs e) na d:\web\localuser\vacinas\www\pagamentos.aspx.cs:linha 288
|EXTRA: 
--------------------------------------------------------------------------------

2024-02-07 11:18:07
|ORIGEM: ImunneVacinas
|EMPRESA: -1
|USER: -1
|ERRO: O servidor remoto retornou um erro: (422) Unprocessable Entity.
|TIPO: System.Net.WebException
|TRACE:    em System.Net.HttpWebRequest.GetResponse()
   em ImunneVacinas.Pagamento.ValidarPagamento(Integracao integracao, Int32 codigoCompra) na d:\web\localuser\vacinas\www\App_Code\Pagamentos.cs:linha 47
|EXTRA: 
--------------------------------------------------------------------------------

2024-02-07 14:06:43
|ORIGEM: ImunneVacinas
|EMPRESA: -1
|USER: -1
|ERRO: O servidor remoto retornou um erro: (422) Unprocessable Entity.
|TIPO: System.Net.WebException
|TRACE:    em System.Net.HttpWebRequest.GetResponse()
   em ImunneVacinas.Pagamento.ValidarPagamento(Integracao integracao, Int32 codigoCompra) na d:\web\localuser\vacinas\www\App_Code\Pagamentos.cs:linha 47
|EXTRA: 
--------------------------------------------------------------------------------

2024-02-07 15:24:05
|ORIGEM: ImunneVacinas
|EMPRESA: -1
|USER: -1
|ERRO: O servidor remoto retornou um erro: (422) Unprocessable Entity.
|TIPO: System.Net.WebException
|TRACE:    em System.Net.HttpWebRequest.GetResponse()
   em ImunneVacinas.Pagamento.ValidarPagamento(Integracao integracao, Int32 codigoCompra) na d:\web\localuser\vacinas\www\App_Code\Pagamentos.cs:linha 47
|EXTRA: 
--------------------------------------------------------------------------------

2024-02-07 15:27:06
|ORIGEM: ImunneVacinas
|EMPRESA: -1
|USER: -1
|ERRO: O servidor remoto retornou um erro: (422) Unprocessable Entity.
|TIPO: System.Net.WebException
|TRACE:    em System.Net.HttpWebRequest.GetResponse()
   em ImunneVacinas.Pagamento.ValidarPagamento(Integracao integracao, Int32 codigoCompra) na d:\web\localuser\vacinas\www\App_Code\Pagamentos.cs:linha 47
|EXTRA: 
--------------------------------------------------------------------------------

2024-02-07 21:26:32
|ORIGEM: ImunneVacinas
|EMPRESA: -1
|USER: -1
|ERRO: O servidor remoto retornou um erro: (422) Unprocessable Entity.
|TIPO: System.Net.WebException
|TRACE:    em System.Net.HttpWebRequest.GetResponse()
   em ImunneVacinas.Pagamento.ValidarPagamento(Integracao integracao, Int32 codigoCompra) na d:\web\localuser\vacinas\www\App_Code\Pagamentos.cs:linha 47
|EXTRA: 
--------------------------------------------------------------------------------

2024-02-07 21:29:05
|ORIGEM: ImunneVacinas
|EMPRESA: -1
|USER: -1
|ERRO: O servidor remoto retornou um erro: (422) Unprocessable Entity.
|TIPO: System.Net.WebException
|TRACE:    em System.Net.HttpWebRequest.GetResponse()
   em ImunneVacinas.Pagamento.ValidarPagamento(Integracao integracao, Int32 codigoCompra) na d:\web\localuser\vacinas\www\App_Code\Pagamentos.cs:linha 47
|EXTRA: 
--------------------------------------------------------------------------------

